,,,,,,,"The Smith Hotels",,
,,,,,,,0705625356
,,,,,,,"Quantity control Report"
,,,,
,,Item,"Sales QTY"
"SEPEKO BAR"
,"Local Beers Sepeko"
,,"Tusker Lager",1
,,"Swimming Adults",9
,,"SWIMMING CHILDREN",13
,"International Beers Sepeko"
,,"Guiness Kubwa",3
,"BLENDED WHISKY & BOURBON BT SEPEKO"
,,"JOHNNIE WALKER red label 375ML BT",1
,,"JOHNNIE WALKER BLACK LABEL 375ML",1
,"Ciders Sepeko"
,,Snapp,5
,,"SAVANNA CIDER",1
,"Energy Drinks Sepeko"
,,Redbull,4
,"Juices Sepeko"
,,"Pick N Peel Apple 1ltr",2
,,"Pick N Peel Tropical Mix 1ltr",2
,,"Pick N Peel Mango 1ltr",5
,,"Lime Cordial",1
,"Mineral Water Sepeko"
,,"Mineral Water 500ml",71
,,"Sparkling Water 500ml",2
,,"BUFFET WATER",9
,"Other Beers Sepeko"
,,"Smirnoff Guarana",2
,"Sodas Sepeko"
,,"Soda - Coke 300ml",28
,,"Soda - Fanta Orange 300ml",29
,,"Soda - Sprite 300ml",11
,,"Soda - Stoney Tangawizi 300ml",6
,,"Soda - Bitter Lemon 300ml",6
,,"Alvaro Pineapple",2
,,"Soda - Fanta Black Current 300ml",14
,,"Soda - Fanta Pineapple 300ml",1
,,"Soda - Soda Water 300ml",3
,,"Soda - Tonic  Water 300ml",4
,,"Soda - Ginger Ale 300ml",5
,,"Soda - Fanta Passion 300ml",17
,,"BUFFET SODA-FANTA PASSION",4
,,"BUFFET SODA-COKE",3
,,"BUFFET SODA-SPRITE",4
,,"BUFFET SODA-BLACK CURRENT",2
,,"BUFFET SODA-STONEY",3
,,"BUFFET SODA-GINGER ALE",2
,"Sweet Red Wines BT Sepeko"
,,"4th Street Red BT",3
,"VODKA, GIN, RUM & TEQUILA GLS SEPEKO"
,,"Gilbey's TOT",5
,,"Tequila TOT",17
BUTCHERY
,"Side Orders Butchery"
,,"Famous Ugali",24
,,Kienyeji,9
,,Chips,19
,,"Roast Potatoes",4
,,"Rosemary Potatoes",1
,,"Lyonnaise Potatoes",8
,,"Vegetable Rice",2
,,"Traditional Vegies",2
,,Kachumbari,5
,,SPINACH,7
,,"PWANI CHAPATI(TWO)",1
,,"BILL PRINTER BUTCHERY",38
,Butchery
,,"MBUZI CHOMA 1KG",9
,,"Mbuzi Choma Half (1/2) KG",8
,,"MBUZI WET FRY 1KG",10
,,"MBUZI DRY FRY 1/2 KG",2
,,"FULL KUKU BROILER CHOMA",1
,,"FULL KUKU BROILER DRY FRY",2
,,"FULL KUKU KIENYEJI WET FRY",4
,,"FULL KUKU KIENYEJI CHOMA",1
,,"HALF KUKU KIENYEJI CHOMA",1
,,"HALF KUKU BROILER CHOMA",1
,,"MBUZI CHOMA 0.1 Kg",13
,,"MBUZI CHOMA  0.75",1
,,"MBUZI TAKEAWAY 0.1",7
,,"HALF KUKU KIENYEJI WET FRY",6
,,"MBUZI DRY FRY 1KG",3
,,"HALF KUKU KIENYEJI DRY FRY",2
,,"HALF KUKU BROILER WET FRY",3
,,"FULL KUKU BROILER WET FRY",2
,,"FULL KUKU KIENYEJI DRY FRY",3
"KITCHEN Main"
,"Buffet & Packages"
,,"SILVER BUFFET PACKAGE",28
,Dessert
,,"Milk Shake Vanilla",16
,,"Ice Cream Double Jack",9
,,"Ice Cream Coupe Jack",2
,,"Milk Shake Chocolate",3
,,"Milkshake Strawberry",10
,"Kids Zone"
,,"Tom & Jerry Fish Finger",2
,,"CHIPS & 2 SAUSAGES",3
,"Light Snacks & Bar Bites"
,,"Trio Beef Samosa",15
,,"Trio Feta Samosa",2
,,"Four Snacks",20
,,"Home Fries Delight",2
,,"2 CHOMA SAUSAGES",4
,,MEATBALLS,3
,,BOEREWORS,1
,,"PAN FRIED CHOMA SAUSAGES",1
,"Side Orders"
,,"Famous Ugali",6
,,Kienyeji,2
,,Chips,43
,,"Masala Chips",4
,,"Roast Potatoes",4
,,"Rosemary Potatoes",1
,,"Lyonnaise Potatoes",6
,,"Plain Rice",1
,,"Traditional Vegies",9
,"Pizza Corner"
,,"Meat Deluxe Pizza",1
,,"Meat Deluxe Pizza-Chicken",3
,Beef
,,"T - Bone Steak",3
,,"Stir Fried Beef Fillet",2
,,"Tasty African Beef Stew",3
,Platters
,,"Mixed Grill",1
,,"Pork Spare Ribs Platter",5
,,"CHICKEN KENYA PLATTER(Broiler)",1
,,"CHICKEN KENYA PLATTER(Kienyeji)",1
,,"FAMOUS PLATTER (MEDIUM)",5
,,"FAMOUS PLATTER (LARGE)",5
,Chicken
,,"CHICKEN DHANIA",5
,,"BREADED CHICKEN",2
,,"MARINATED GRILLED CHICKEN",12
,Lamb
,,"Lamb Chops",4
,,"Mutton Curry",1
,Pork
,,"Pork Chops",8
,,"Pork Spare Ribs",1
,,"BREADED PORK CHOPS(Schnitzel)",1
,Fish
,,"Fish Zanzibar",7
,,"Pan Fried Fish Fillet",2
,,"Crispy Fish Fillet(Schnitzel)",3
,,"Tilapia Nyanza Style",10
,,"Oriental Fish Masala",2
,,"FISH IN LEMON BUTTER SAUCE",1
,Starters
,,"MTETA SOUP",1
,"Burger, Sandwich & Wings"
,,"Beef Burger",3
,,"Chicken Burger",1
,,Drumsticks,6
,,"Chicken Nuggets",3
,,"Chilli Garlic Chicken Wings",8
,,"Club Sandwich",9
,,"Steak & Mushroom Sandwich",1
,,"TEXAS BURGER",3
,Salads
,,"Chef's Salad of The day Starter",1
,,"The Smith Signature Salad Starter",3
,,"The Smith Signature Salad as Full Meal",4
,,Kachumbari,2
,,"KACHUMBARI AVOCADO",3
,SMOOTHIES
,,"STARWBERRY DELIGHT",1
,,"TROPICAL MIX",2
,,"TROPICAL DELIGHT",2
,"Steak & Eggs"
,,"Steak & Eggs Omellette",2
,"Full Smith Breakfast"
,,"Full Smith Breakfast",6
,"Egg Any Style"
,,"Two Eggs With Toast",1
,,"Two Eggs With Toast & Saute Potatoes",2
,,"Two Eggs With Toast, Bacon or 2 Sausages",2
,"Coffee, Tea & Pastry"
,,"Espresso Sgnl",1
,,"Espresso DBL",1
,,"Cappuccino SGNL",3
,,"Cappuccino DBL",6
,,"Caffe Latte",4
,,"Cafe Mocha DBL",3
,,"House Coffee",38
,,"African Mixed Tea Pot",55
,,"Smith Dawa Mug",50
,,"Masala Tea Pot",14
,,"Hot Chocolate",14
,,"Glass of Juice(MANGO)",17
,,"Glass of Milk",2
,,Bacon,5
,,"Two Sausages",21
,,"Kebab (1 Piece)",5
,,"Toast ( Butter & Jam ) 3 Slices",2
,,"Chapati (two pieces)",15
,,"Lemon Water",4
,,"LEMON TEA",3
,,"EXTRA HONEY 40g",24
,,"AMERICAN PANCAKES",2
,,"Glass of Juice(COCKTAIL)",7
,,"Glass of Juice(PASSION)",8
,,"MILK ONLY TEA",13
,Omelettes
,,"Mushroom, Basil & Cheese",1
,,Denver,1
SEKENANI
,"Local Beers Sekenani"
,,"Tusker Lager",6
,,"Tusker Malt",2
,,"Tusker Lite",13
,,Balozi,2
,"International Beers Sekenani"
,,Heineken,5
,,"Guiness Kubwa",2
,"BLENDED WHISKY & BOURBON GLS SEKENANI"
,,"JACK DANIELS TOT",4
,"Ciders Sekenani"
,,Snapp,5
,,"SAVANNA CIDER",1
,"Cocktails Sekenani"
,,"Long Island",3
,"Dry White Wine BT Sekenani"
,,"Drostdy Hof BT",1
,"Energy Drinks Sekenani"
,,Redbull,5
,"Juices Sekenani"
,,"Pick N Peel Tropical Mix 1ltr",2
,,"Pick N Peel Mango 1ltr",3
,"LIQUEURS TOTS SEKENANI"
,,"Jagermeister TOT",3
,"Mineral Water Sekenani"
,,"Mineral Water 500ml",48
,"Other Beers Sekenani"
,,"Smirnoff Guarana",4
,"Sodas Sekenani"
,,"Soda - Coke 300ml",12
,,"Soda - Fanta Orange 300ml",3
,,"Soda - Sprite 300ml",1
,,"Soda - Stoney Tangawizi 300ml",3
,,"Soda - Bitter Lemon 300ml",5
,,"Soda - Fanta Black Current 300ml",3
,,"Soda - Tonic  Water 300ml",4
,,"Soda - Ginger Ale 300ml",2
,,"Soda - Fanta Passion 300ml",5
,"VODKA, GIN, RUM & TEQUILA BT SEKENANI"
,,"Gilbey's 350ML BT",1
,"VODKA, GIN, RUM & TEQUILA GLS SEKENANI"
,,"Smirnoff Red TOT",1
,,"Gilbey's TOT",13
,,"Tequila TOT",14
,,"Captain Morgan  SPICE GOLD TOT",2
,"BRANDY & COGNAC GLS SEKENANI"
,,"VICEROY TOT",2
ACCOMMODATION
,"Other Room Services"
,,"Room Breakfast",51
,,"Room Mineral Water",96
,"Smith Superior Deluxe Double"
,,"BO DELUXE DOUBLE",1
,,"BB SMITH DELUXE DOUBLE",1
,"Smith Superior Double"
,,"B. B Smith Superior Double",2
,,"BO SMITH SUPERIOR DOUBLE",3
,,"FB SMITH SUPERIOR DOUBLE",1
,"Smith Superior Single"
,,"BO SMITH SUPERIOR SINGLE",1
,,"BB SMITH SUPERIOR SINGLE",2
,"Smith Superior Standard Double"
,,"BB SMITH SUPERIOR STANDARD DOUBLE",2
,"Smith Superior Standard Single"
,,"B O SUPERIOR STANDARD",1
,"Smith Standard Double Lania"
,,"B. B Standard Lania Double",1
,,"BO STANDARD LANIA DOUBLE",4
,"Smith Standard Single Lania"
,,"B O STANDARD SINGLE LANIA",5
,"Smith Standard Double"
,,"B. B Standard Double",4
,,"H B STANDARD DOUBLE",1
,,"BO SMITH STANDARD DOUBLE",4
,"Smith Standard Single"
,,"Bed Only Standard",9
"CONFERENCING PACKAGES"
,"CONFERENCE PACKAGES"
,,"FULL BOARD CONFERENCE",2
,,"FULL BOARD CONFERENCE",14
,,"CONFERENCE WATER",24
"STORE ITEMS & OTHER SERVICES"
,"Other Services - General"
,,"Personal Taining",1
,,Bottle,5
,,"BILL PRINTER SEKENANI",132
,,"BILL PRINTER SEPEKO",48
,,"BILL PRINTER KITCHEN",5
,"EX-STORE PURCHASES"
,,"BLUE T-SHIRT MEDIUM",2
,,"STAFF FACE MASK - RED",1
,,"STAFF SHOES",1
,,"STAFF SWEATER(S)",1
,,"WHITE T-SHIRT LARGE",1
,"GENERAL STORE ISSUES"
,,"STAFF SUGAR",13
,,FOIL,1
,,"BURNER GEL CAN",2
,,SERVIETTE(PKT),17
,,"TOILET PAPER",40
,,INTERLEAVES,19
,,CERRAZO,14
,,"DEGREASER (1LTR)",12
,,"BRIQUETTE (1 BAG)",2
,,MINTS(PKT),3
,,TOOTHPICK,8
,,"TOILET CLEANER",6
,,BLEACH,13
,,STRAW,4
,,"CHEMICAL SOAP",36
,,"CHLORINE 90",1
,,"AIR WICK SPRAY",3
,,SCRUBBER,2
,,"SUPER BRIGHT",15
,,"HAND WASH LIQUID SOAP",5
,,"FAY MULTIFOLD HAND TOWEL",12
,,"INDUSTRIAL GLOVES",1
"SWIMMING & KIDS ACTIVITIES"
,Gym
,,"Gym Monthly Rate",1
,,"GYM WATER",9
,,
,,,2016
