,,,,,,,"The Smith Hotels",,
,,,,,,,0705625356
,,,,,,,Recipes
,,,,



,"Tusker Lager--SEKENANI"
,,,1,"TUSKER BEER 500ML",1,Bottle



,Balozi--SEPEKO
,,,1,"BALOZI LAGER BEER 500ML",1,Bottle



,Balozi--SEKENANI
,,,1,"BALOZI LAGER BEER 500ML",1,Bottle



,"Guiness Kubwa--SEPEKO"
,,,1,"GUINNESS KUBWA BEER 500ML",1,Bottle



,"Guiness Kubwa--SEKENANI"
,,,1,"GUINNESS KUBWA BEER 500ML",1,Bottle



,"Tusker Lager--SEPEKO"
,,,1,"TUSKER BEER 500ML",1,Bottle



,"Pilsner Lager--SEPEKO"
,,,1,"PILSNER LAGER BEER 500ML",1,Bottle



,"Pilsner Lager--SEKENANI"
,,,1,"PILSNER LAGER BEER 500ML",1,Bottle



,Snapp--SEPEKO
,,,1,"SNAPP CIDER 300ML",1,Bottle



,Snapp--SEKENANI
,,,1,"SNAPP CIDER 300ML",1,Bottle



,"Tusker Cider--SEPEKO"
,,,1,"TUSKER CIDER 500ML",1,Bottle



,"Tusker Cider--SEKENANI"
,,,1,"TUSKER CIDER 500ML",1,Bottle



,"Tusker Lite--SEPEKO"
,,,1,"TUSKER LITE BEER 330ML",1,Bottle



,"Tusker Lite--SEKENANI"
,,,1,"TUSKER LITE BEER 330ML",1,Bottle



,"Tusker Malt--SEPEKO"
,,,1,"TUSKER MALT BEER 330ML",1,Bottle



,"Tusker Malt--SEKENANI"
,,,1,"TUSKER MALT BEER 330ML",1,Bottle



,"White Cap Lager--SEPEKO"
,,,1,"WHITE CAP LAGER BEER 500ML",1,Bottle



,"White Cap Lager--SEKENANI"
,,,1,"WHITE CAP LAGER BEER 500ML",1,Bottle



,"White Cap Light--SEPEKO"
,,,1,"WHITE CAP LITE BEER 330ML",1,Bottle



,"White Cap Light--SEKENANI"
,,,1,"WHITE CAP LITE BEER 330ML",1,Bottle



,"King Fisher--SEPEKO"
,,,1,"KING FISHER CIDER 300ML",1,Bottle



,"King Fisher--SEKENANI"
,,,1,"KING FISHER CIDER 300ML",1,Bottle



,Heineken--SEPEKO
,,,1,"HEINEKEN BEER 330ml",1,Bottle



,Heineken--SEKENANI
,,,1,"HEINEKEN BEER 330ml",1,Bottle



,"Soda - Coke 300ml--SEPEKO"
,,,1,"COKE SODA 300ML",1,Bottle



,"Soda - Coke 300ml--SEKENANI"
,,,1,"COKE SODA 300ML",1,Bottle



,"Soda - Fanta Orange 300ml--SEPEKO"
,,,1,"FANTA ORANGE SODA 300ML",1,Bottle



,"Soda - Fanta Orange 300ml--SEKENANI"
,,,1,"FANTA ORANGE SODA 300ML",1,Bottle



,"Soda - Fanta Black Current 300ml--SEPEKO"
,,,1,"FANTA BLACK CURRANT SODA 300ML",1,Bottle



,"Soda - Fanta Black Current 300ml--SEKENANI"
,,,1,"FANTA BLACK CURRANT SODA 300ML",1,Bottle



,"Soda - Fanta Pineapple 300ml--SEPEKO"
,,,1,"FANTA PINEAPPLE SODA 300ML",1,Bottle



,"Soda - Fanta Pineapple 300ml--SEKENANI"
,,,1,"FANTA PINEAPPLE SODA 300ML",1,Bottle



,"Soda - Bitter Lemon 300ml--SEPEKO"
,,,1,"KREST BITTER LEMON SODA 300ML",1,Bottle



,"Soda - Bitter Lemon 300ml--SEKENANI"
,,,1,"KREST BITTER LEMON SODA 300ML",1,Bottle



,"Soda - Ginger Ale 300ml--SEPEKO"
,,,1,"KREST GINGER ALE SODA 300ML",1,Bottle



,"Soda - Ginger Ale 300ml--SEKENANI"
,,,1,"KREST GINGER ALE SODA 300ML",1,Bottle



,"Soda - Sprite 300ml--SEPEKO"
,,,1,"SPRITE SODA 300ML",1,Bottle



,"Soda - Sprite 300ml--SEKENANI"
,,,1,"SPRITE SODA 300ML",1,Bottle



,"Soda - Stoney Tangawizi 300ml--SEPEKO"
,,,1,"STONEY TANGAWIZI SODA 300ml",1,Bottle



,"CHRISTMAS KUKU KIENYEJI  PLATTER--BUTCHERY"
,,,1,KIENYEJI,1,select
,,,2,POTATOES,1,Kilogram



,"Soda - Tonic  Water 300ml--SEPEKO"
,,,1,"TONIC WATER SODA 300ML",1,Bottle



,"BUFFET SODA-TONIC--SEKENANI"
,,,1,"TONIC WATER SODA 300ML",1,Bottle



,"Soda - Soda Water 300ml--SEPEKO"
,,,1,"SODA WATER SODA 300ML",1,Bottle



,"Soda - Soda Water 300ml--SEKENANI"
,,,1,"SODA WATER SODA 300ML",1,Bottle



,"Sparkling Water 500ml--SEPEKO"
,,,1,"SPARKLING MINERAL WATER 500ML",1,Bottle



,"Sparkling Water 500ml--SEKENANI"
,,,1,"SPARKLING MINERAL WATER 500ML",1,Bottle



,"Pick N Peel Tropical Mix 1ltr--SEPEKO"
,,,1,"PICK N PEEL JUICE TROPICAL 1 LTR",1,PACKET



,"Pick N Peel Tropical Mix 1ltr--SEKENANI"
,,,1,"PICK N PEEL JUICE TROPICAL 1 LTR",1,PACKET



,"Pick N Peel Mango 1ltr--SEPEKO"
,,,1,"PICK N PEEL JUICE MANGO 1 LTR",1,PACKET



,"Pick N Peel Mango 1ltr--SEKENANI"
,,,1,"PICK N PEEL JUICE MANGO 1 LTR",1,PACKET



,"Pick N Peel White Grape 1ltr--SEPEKO"
,,,1,"PICK N PEEL JUICE WHITE GRAPE 1 LTR",1,PACKET



,"Pick N Peel White Grape 1ltr--SEKENANI"
,,,1,"PICK N PEEL JUICE WHITE GRAPE 1 LTR",1,PACKET



,"Mineral Water 500ml--SEPEKO"
,,,1,"SMITH MINERAL WATER 500ML",1,Bottle



,"Mineral Water 500ml--SEKENANI"
,,,1,"SMITH MINERAL WATER 500ML",1,Bottle



,"Dunhill Switch--SEPEKO"
,,,1,"DUNHILL SWITCH CIGARETTES (20's)",1,PACKET



,"Dunhill Switch--SEKENANI"
,,,1,"DUNHILL SWITCH CIGARETTES (20's)",1,PACKET



,"Embassy Kings--SEPEKO"
,,,1,"EMBASSY KINGS CIGARETTES (20's)",1,PACKET



,"Embassy Kings--SEKENANI"
,,,1,"EMBASSY KINGS CIGARETTES (20's)",1,PACKET



,"Sweet Menthol (SM)--SEPEKO"
,,,1,"SWEET MENTHOL CIGARETTES (20's)",1,PACKET



,"Sweet Menthol (SM)--SEKENANI"
,,,1,"SWEET MENTHOL CIGARETTES (20's)",1,PACKET



,"Zappa RED BT--SEPEKO"
,,,1,"ZAPPA SAMBUCA RED 30ML TOT",25,TOT



,"Zappa RED BT--SEKENANI"
,,,1,"ZAPPA SAMBUCA RED 30ML TOT",25,TOT



,"Barcadi TOT--SEPEKO"
,,,1,"BARCADI SILVER 30ML TOT",1,TOT



,"Barcadi TOT--SEKENANI"
,,,1,"BARCADI SILVER 30ML TOT",1,TOT



,"JACK DANIELS 350ML BT--SEKENANI"
,,,1,"JACK DANIELS 375ML",1,Bottle



,"Barcadi BT--SEKENANI"
,,,1,"BARCADI SILVER 30ML TOT",25,TOT



,"Martini BT--SEPEKO"
,,,1,"MARTINI BIANCO 30ML TOT",25,TOT



,"Martini BT--SEKENANI"
,,,1,"MARTINI BIANCO 30ML TOT",25,TOT



,"Martini TOT--SEPEKO"
,,,1,"MARTINI BIANCO 30ML TOT",1,TOT



,"Martini TOT--SEKENANI"
,,,1,"MARTINI BIANCO 30ML TOT",1,TOT



,"Absolute 750ml BT--SEPEKO"
,,,1,"ABSOLUT VODKA 30ML TOT",25,TOT



,"Absolute 750ml BT--SEKENANI"
,,,1,"ABSOLUT VODKA 30ML TOT",25,TOT



,"Absolute TOT--SEPEKO"
,,,1,"ABSOLUT VODKA 30ML TOT",1,TOT



,"Absolute TOT--SEKENANI"
,,,1,"ABSOLUT VODKA 30ML TOT",1,TOT



,"Ciroc BT--SEPEKO"
,,,1,"CIROC VODKA 30ML TOT",25,TOT



,"Ciroc BT--SEKENANI"
,,,1,"CIROC VODKA 30ML TOT",25,TOT



,"Ciroc TOT--SEPEKO"
,,,1,"CIROC VODKA 30ML TOT",1,TOT



,"Ciroc TOT--SEKENANI"
,,,1,"CIROC VODKA 30ML TOT",1,TOT



,"Smirnoff Red 350ML BT--SEPEKO"
,,,1,"SMIRNOFF RED VODKA 375ML BOTTLE",1,Bottle



,"Smirnoff Red 350ML BT--SEKENANI"
,,,1,"SMIRNOFF RED VODKA 375ML BOTTLE",1,Bottle



,"Smirnoff Red 750ML BT--SEPEKO"
,,,1,"SMIRNOFF RED VODKA 30ML TOT",25,TOT



,"Smirnoff Red 750ML BT--SEKENANI"
,,,1,"SMIRNOFF RED VODKA 30ML TOT",25,TOT



,"Smirnoff Red TOT--SEPEKO"
,,,1,"SMIRNOFF RED VODKA 30ML TOT",1,TOT



,"Smirnoff Red TOT--SEKENANI"
,,,1,"SMIRNOFF RED VODKA 30ML TOT",1,TOT



,"Gilbey's 750ML BT--SEPEKO"
,,,1,"GILBEYS GIN 30ML TOT",25,TOT



,"Gilbey's 750ML BT--SEKENANI"
,,,1,"GILBEYS GIN 30ML TOT",25,TOT



,"Gilbey's TOT--SEPEKO"
,,,1,"GILBEYS GIN 30ML TOT",1,TOT



,"Gilbey's TOT--SEKENANI"
,,,1,"GILBEYS GIN 30ML TOT",1,TOT



,"Gilbey's 350ML BT--SEPEKO"
,,,1,"GILBEYS GIN 375 ML BOTTLE",1,Bottle



,"Gilbey's 350ML BT--SEKENANI"
,,,1,"GILBEYS GIN 375 ML BOTTLE",1,Bottle



,"HENDRIX 750 ML BT--SEPEKO"
,,,1,"HENDRIX GIN 30ML TOT",25,TOT



,"HENDRIX 750 ML BT--SEKENANI"
,,,1,"HENDRIX GIN 30ML TOT",25,TOT



,"HENDRIX GIN TOT--SEPEKO"
,,,1,HENDRIX,1,TOT



,"HENDRIX GIN TOT--SEKENANI"
,,,1,HENDRIX,1,TOT



,"Gordon'S BT--SEPEKO"
,,,1,"GORDONS LONDON DRY GIN 30ML TOT",25,TOT



,"Gordon'S BT--SEKENANI"
,,,1,"GORDONS LONDON DRY GIN 30ML TOT",25,TOT



,"Gordon'S TOT--SEPEKO"
,,,1,"GORDONS LONDON DRY GIN 30ML TOT",1,TOT



,"Gordon'S TOT--SEKENANI"
,,,1,"GORDONS LONDON DRY GIN 30ML TOT",1,TOT



,"GORDONS PINK GIN 750ML BT--SEPEKO"
,,,1,"GORDONS PINK GIN 30ML TOT",25,select



,"Zappa Clear TOT--SEPEKO"
,,,1,"ZAPPA SAMBUCA CLEAR 30ML TOT",1,select



,"SIRLOIN STEAK--KITCHEN"
,,,1,"SIRLOIN 250g",1,select
,,,2,POTATOES,0.5,Kilogram



,"Tanqueray BT--SEPEKO"
,,,1,"TANQUERAY DRY GIN 30 ML",25,TOT



,"Tanqueray BT--SEKENANI"
,,,1,"TANQUERAY DRY GIN 30 ML",25,TOT



,"TANQUERAY TOT--SEPEKO"
,,,1,"TANQUERAY DRY GIN 30 ML",1,TOT



,"TANQUERAY TOT--SEKENANI"
,,,1,"TANQUERAY DRY GIN 30 ML",1,TOT



,"Zappa Green TOT--SEPEKO"
,,,1,"ZAPPA SAMBUCA GREEN 30ML TOT",1,select



,"TANQUERAY NO. TEN BT--SEKENANI"
,,,1,"TANQUERAY 10 DRY GIN 30 ML",25,select



,"CHRISTMAS LARGE PLATTER--BUTCHERY"
,,,1,"MBUZI 1KG",1,Kilogram
,,,2,BEEF,3,select
,,,3,POTATOES,1.5,Kilogram
,,,4,CHICKEN,1,select
,,,5,FLAMBEE,1,Kilogram



,"Courvoisier VS BT--SEPEKO"
,,,1,"COURVOISIER VS 30 ML TOT",25,TOT



,"Courvoisier VS BT--SEKENANI"
,,,1,"COURVOISIER VS 30 ML TOT",25,TOT



,"Courvoisier VSOP BT--SEKENANI"
,,,1,"COURVOISIER VSOP 30 ML TOT",25,TOT



,"Courvoisier VSOP TOT--SEPEKO"
,,,1,"COURVOISIER VSOP 30 ML TOT",1,TOT



,"Courvoisier VSOP TOT--SEKENANI"
,,,1,"COURVOISIER VSOP 30 ML TOT",1,TOT



,"HENNESSY VS BT--SEPEKO"
,,,1,"HENNESSY VS 30ML TOT",25,TOT



,"HENNESSY VSOP BT--SEKENANI"
,,,1,"HENNESSY VS 30ML TOT",25,TOT



,"HENNESSY VS T0T--SEPEKO"
,,,1,"HENNESSY VS 30ML TOT",1,TOT



,"HENNESSY VS T0T--SEKENANI"
,,,1,"HENNESSY VS 30ML TOT",1,TOT



,"HENNESSY VSOP BT--SEPEKO"
,,,1,"HENNESSY VSOP 30ML TOT",23,TOT



,"HENNESSY VSOP TOT--SEPEKO"
,,,1,"HENNESSY VSOP 30ML TOT",1,TOT



,"HENNESSY VSOP TOT--SEKENANI"
,,,1,"HENNESSY VSOP 30ML TOT",1,TOT



,"Martel VS BT--SEPEKO"
,,,1,"MARTEL VS 30ML TOT",23,TOT



,"Martel VS BT--SEKENANI"
,,,1,"MARTEL VS 30ML TOT",23,TOT



,"Martel VS TOT--SEPEKO"
,,,1,"MARTEL VS 30ML TOT",1,TOT



,"Martel VS TOT--SEKENANI"
,,,1,"MARTEL VS 30ML TOT",1,TOT



,"MARTEL VSOP BT--SEPEKO"
,,,1,"MARTEL VSOP 30ML TOT",23,TOT



,"MARTEL VSOP TOT--SEPEKO"
,,,1,"MARTEL VSOP 30ML TOT",1,TOT



,"MARTEL VSOP TOT--SEKENANI"
,,,1,"MARTEL VSOP 30ML TOT",1,TOT



,"Oude Meister VSOB BT--SEPEKO"
,,,1,"OUDEMEISTER 30 ML TOT",25,TOT



,"Oude Meister VSOB BT--SEKENANI"
,,,1,"OUDEMEISTER 30 ML TOT",25,TOT



,"Swimming Adults--SEPEKO"
,,,1,"SWIMMING TAGS",1,Piece



,"SWIMMING CHILDREN--SEPEKO"
,,,1,"SWIMMING TAGS",1,Piece



,OSSOBUCO--KITCHEN
,,,1,"OSSOBUCO 250g",1,select
,,,2,POTATOES,0.25,Kilogram
,,,3,RICE,1,PORTION



,"Remy Martin VSOP BT--SEPEKO"
,,,1,"REMY MARTIN VSOP TOT",1,TOT



,"Remy Martin VSOP BT--SEKENANI"
,,,1,"REMY MARTIN VSOP TOT",23,TOT



,"REMY MARTIN VSOP TOT--SEPEKO"
,,,1,"REMY MARTIN VSOP TOT",1,TOT



,"SMIRNOFF ICE BLACK  6 CANS--SEPEKO"
,,,1,"SMIRNOFF ICE BLACK",6,Bottle



,"Viceroy(350 ml)--SEPEKO"
,,,1,"VICEROY 375ML BOTTLE",1,Bottle



,"Viceroy(350 ml)--SEKENANI"
,,,1,"VICEROY 375ML BOTTLE",1,Bottle



,"Viceroy BT--SEPEKO"
,,,1,"VICEROY 30ML TOT",25,TOT



,"Viceroy BT--SEKENANI"
,,,1,"VICEROY 30ML TOT",25,TOT



,"VICEROY TOT--SEPEKO"
,,,1,"VICEROY 30ML TOT",1,select



,"VICEROY TOT--SEKENANI"
,,,1,"VICEROY 30ML TOT",1,select



,"Amarula 750 BT--SEPEKO"
,,,1,"AMARULA 30ML TOT",25,TOT



,"Amarula 750 BT--SEKENANI"
,,,1,"AMARULA 30ML TOT",25,TOT



,"Amarula 375 ML--SEKENANI"
,,,1,"AMARULA 375ML BOTTLE",1,Bottle



,"Amarula 375 ML--SEPEKO"
,,,1,"AMARULA 375ML BOTTLE",1,Bottle



,"Amarula TOT--SEPEKO"
,,,1,"AMARULA 30ML TOT",1,TOT



,"Amarula TOT--SEKENANI"
,,,1,"AMARULA 30ML TOT",1,TOT



,"Baileys 750 ML BT--SEPEKO"
,,,1,"BAILEYS 30ML TOT",25,TOT



,"Baileys 750 ML BT--SEKENANI"
,,,1,"BAILEYS 30ML TOT",25,TOT



,"Baileys 375ML--SEPEKO"
,,,1,"BAILEYS 375ML BOTTLE",1,Bottle



,"Baileys 375ML--SEKENANI"
,,,1,"BAILEYS 375ML BOTTLE",1,Bottle



,"BAILEYS 350ML--SEPEKO"
,,,1,"BAILEYS 375ML BOTTLE",1,Bottle



,"BAILEYS 350ML--SEKENANI"
,,,1,"BAILEYS 375ML BOTTLE",1,Bottle



,"Baileys TOT--SEPEKO"
,,,1,"BAILEYS 30ML TOT",1,TOT



,"Baileys TOT--SEKENANI"
,,,1,"BAILEYS 30ML TOT",1,TOT



,"MOLLY'S IRISH CREAM BT--SEPEKO"
,,,1,"MOLLY'S IRISH CREAM 30ML TOT",25,TOT



,"MOLLY'S IRISH CREAM BT--SEKENANI"
,,,1,"MOLLY'S IRISH CREAM 30ML TOT",25,TOT



,"Drambuie BT--SEKENANI"
,,,1,"DRAMBUIE 30ML TOT",25,TOT



,"KHALUA BT--SEPEKO"
,,,1,"KHALUA 30ML TOT",25,TOT



,"KHALUA BT--SEKENANI"
,,,1,"KHALUA 30ML TOT",25,TOT



,"KHALUA TOT--SEPEKO"
,,,1,"KHALUA 30ML TOT",1,TOT



,"KHALUA TOT--SEKENANI"
,,,1,"KHALUA 30ML TOT",1,TOT



,"Sheridan's BT--SEPEKO"
,,,1,"SHERIDANS LIQUEUR 30ML TOT",33,TOT



,"Sheridan's BT--SEKENANI"
,,,1,"SHERIDANS LIQUEUR 30ML TOT",33,TOT



,"Sheridan's TOT--SEPEKO"
,,,1,"SHERIDANS LIQUEUR 30ML TOT",1,TOT



,"Sheridan's TOT--SEKENANI"
,,,1,"SHERIDANS LIQUEUR 30ML TOT",1,TOT



,"Southern Comfort BT--SEPEKO"
,,,1,"SOUTHERN COMFORT LIQUEUR 30ML TOT",23,TOT



,"Southern Comfort BT--SEKENANI"
,,,1,"SOUTHERN COMFORT LIQUEUR 30ML TOT",23,TOT



,"Southern Comfort TOT--SEPEKO"
,,,1,"SOUTHERN COMFORT LIQUEUR 30ML TOT",1,TOT



,"Southern Comfort TOT--SEKENANI"
,,,1,"SOUTHERN COMFORT LIQUEUR 30ML TOT",1,TOT



,"TIA MARIA BT--SEPEKO"
,,,1,"TIA MARIA LIQUEUR 30ML TOT",23,TOT



,"TIA MARIA BT--SEKENANI"
,,,1,"TIA MARIA LIQUEUR 30ML TOT",23,TOT



,"TIA MARIA TOT--SEPEKO"
,,,1,"TIA MARIA LIQUEUR 30ML TOT",1,TOT



,"TIA MARIA TOT--SEKENANI"
,,,1,"TIA MARIA LIQUEUR 30ML TOT",1,TOT



,"Jagermeister BT--SEPEKO"
,,,1,"JAGERMEISTER LIQEUER 30ML TOT",25,TOT



,"Jagermeister BT--SEKENANI"
,,,1,"JAGERMEISTER LIQEUER 30ML TOT",25,TOT



,"Jagermeister TOT--SEPEKO"
,,,1,"JAGERMEISTER LIQEUER 30ML TOT",1,TOT



,"Jagermeister TOT--SEKENANI"
,,,1,JAGERMEISTER,1,TOT



,"Lime Cordial--SEPEKO"
,,,1,"LIME CORDIAL",1,TOT



,"Lime Cordial--SEKENANI"
,,,1,"LIME CORDIAL",1,TOT



,"Zappa black BT--SEKENANI"
,,,1,"ZAPPA BLACK BT 750 ML",1,Bottle



,"TUSKER LAGER 6 BOTTLES--SEKENANI"
,,,1,"TUSKER LAGER BEER 500ML",6,Bottle



,"BUFFET SODA-FANTA PINEAPPLE--SEKENANI"
,,,1,"FANTA PINEAPPLE SODA 300ML",1,Bottle



,BARCADI--SEKENANI
,,,1,"BARCADI SILVER 30ML TOT",25,select



,"Zappa Blue BT--SEKENANI"
,,,1,"ZAPPA BLUE BT 750 ML",1,Bottle



,"VICEROY 350ML BT--SEPEKO"
,,,1,"VICEROY 375ML BOTTLE",1,Bottle



,"House Wines Red Dry Gls--SEKENANI"
,,,1,"CELLAR CASK JOHANNISBERGER RED WINE 200ML GLASS",1,select



,"SMIRNOFF GUARANA  6 CANS--SEPEKO"
,,,1,"SMIRNOFF GUARANA 330ML CAN",6,Cans



,"Zappa Clear TOT--SEKENANI"
,,,1,"ZAPPA SAMBUCA CLEAR 30ML TOT",1,select



,"Zappa Green BT--SEKENANI"
,,,1,"ZAPPA GREEN BT 750 ML",1,Bottle



,"VICEROY 350ML BT--SEKENANI"
,,,1,"VICEROY 375ML BOTTLE",1,Bottle



,"Zappa RED TOT--SEPEKO"
,,,1,"ZAPPA SAMBUCA RED 30ML TOT",1,TOT



,"Zappa RED TOT--SEKENANI"
,,,1,"ZAPPA SAMBUCA RED 30ML TOT",1,TOT



,"Captain Morgan 750ml BT--SEPEKO"
,,,1,"CAPTAIN MORGAN JAMAICA RUM 30ML",25,TOT



,"Captain Morgan 750ml BT--SEKENANI"
,,,1,"CAPTAIN MORGAN JAMAICA RUM 30ML",25,TOT



,"Captain Morgan TOT--SEPEKO"
,,,1,"CAPTAIN MORGAN JAMAICA RUM 30ML",1,TOT



,"Captain Morgan TOT--SEKENANI"
,,,1,"CAPTAIN MORGAN JAMAICA RUM 30ML",1,TOT



,"Malibu BT--SEPEKO"
,,,1,"MALIBU 30ML TOT",25,TOT



,"Malibu BT--SEKENANI"
,,,1,"MALIBU 30ML TOT",25,TOT



,"Malibu TOT--SEPEKO"
,,,1,"MALIBU 30ML TOT",1,TOT



,"Malibu TOT--SEKENANI"
,,,1,"MALIBU 30ML TOT",1,TOT



,"MYERS RUM 750 ML--SEPEKO"
,,,1,"MYERS RUM 30ML TOT",25,TOT



,"MYERS RUM 750 ML--SEKENANI"
,,,1,"MYERS RUM 30ML TOT",25,TOT



,"MYERS RUM TOT--SEPEKO"
,,,1,"MYERS RUM 30ML TOT",1,TOT



,"MYERS RUM TOT--SEKENANI"
,,,1,"MYERS RUM 30ML TOT",1,TOT



,"Ron Zacapa BT--SEPEKO"
,,,1,"RON ZACAPA",25,TOT



,"Ron Zacapa BT--SEKENANI"
,,,1,"RON ZACAPA",25,TOT



,"Ron Zacapa TOT--SEPEKO"
,,,1,"RON ZACAPA",1,TOT



,"Ron Zacapa TOT--SEKENANI"
,,,1,"RON ZACAPA",1,TOT



,"JACK DANIELS OLD NO 7 700ML--SEPEKO"
,,,1,"JACK DANIELS OLD NO.7 30ML TOT",23,TOT



,"Courvoisier VS TOT--SEPEKO"
,,,1,"COURVOISIER VS 30 ML TOT",1,TOT



,"Jack Daniels Old No. 7 BT 1 ltr--SEPEKO"
,,,1,"JACK DANIELS OLD NO.7 30ML TOT",33,TOT



,"Jack Daniels Old No. 7 BT 1 ltr--SEKENANI"
,,,1,"JACK DANIELS OLD NO.7 30ML TOT",33,TOT



,"JACK DANIELS TOT--SEKENANI"
,,,1,JACK,1,TOT



,"JACK DANIELS TOT--SEPEKO"
,,,1,JACK,1,TOT



,"JACK DANIELS SILVER SELECT BT--SEPEKO"
,,,1,"JACK DANIELS SILVER SELECT 30ML TOT",23,TOT



,"JACK DANIELS SILVER SELECT BT--SEKENANI"
,,,1,"JACK DANIELS SILVER SELECT 30ML TOT",23,TOT



,"JACK DANIELS SILVER SELECT TOT--SEPEKO"
,,,1,"JACK DANIELS SILVER SELECT 30ML TOT",1,select



,"JACK DANIELS SILVER SELECT TOT--SEKENANI"
,,,1,"JACK DANIELS SILVER SELECT 30ML TOT",1,select



,"JAMESON ORIGINAL 750ML BT--SEPEKO"
,,,1,"JAMESON ORIGINAL 750ML 30ML TOT",25,TOT



,"JAMESON ORIGINAL 750ML BT--SEKENANI"
,,,1,"JAMESON ORIGINAL 750ML 30ML TOT",25,TOT



,"Jameson Black Barrel 750ML BT--SEPEKO"
,,,1,"JAMESON BLACK BARREL 750ML 30ML TOT",25,TOT



,"Jameson Black Barrel 750ML BT--SEKENANI"
,,,1,"JAMESON BLACK BARREL 750ML 30ML TOT",25,TOT



,"Jameson Black Barrel TOT--SEPEKO"
,,,1,"JAMESON BLACK BARREL 750ML 30ML TOT",1,TOT



,"Jameson Black Barrel TOT--SEKENANI"
,,,1,"JAMESON BLACK BARREL 750ML 30ML TOT",1,TOT



,"JOHNNIE WALKER DOUBLE BLACK BT--SEPEKO"
,,,1,"JOHNNIE WALKER DOUBLE BLACK 30ML TOT",33,TOT



,"JOHNNIE WALKER DOUBLE BLACK BT--SEKENANI"
,,,1,"JOHNNIE WALKER DOUBLE BLACK 30ML TOT",33,TOT



,"FAMOUS PLATTER (LARGE)--KITCHEN"
,,,1,"CHICKEN WINGS 250g",1,PORTION
,,,2,FLAMBEE,1,Kilogram
,,,3,POTATOES,1.5,Kilogram
,,,4,"PLATTER RIBS 0.5 KG PORTION",2,Kilogram
,,,5,"BEEF SAUSAGES",3,Pieces
,,,6,"HONEY JAR 40g",1,PORTION



,"JOHNY WALKER DOUBLE BLACK TOT--SEKENANI"
,,,1,"JOHNNIE WALKER DOUBLE BLACK 30ML TOT",1,select



,"William Lawson 750ML BT--SEPEKO"
,,,1,"WILLIAM LAWSON 30ML TOT",25,TOT



,"William Lawson 750ML BT--SEKENANI"
,,,1,"WILLIAM LAWSON 30ML TOT",25,TOT



,"Chivas Regal 12yrs BT--SEPEKO"
,,,1,"CHIVAS REGAL 12 YRS 30ML TOT",25,TOT



,"Chivas Regal 12yrs BT--SEKENANI"
,,,1,"CHIVAS REGAL 12 YRS 30ML TOT",25,TOT



,"Chivas Regal 12yrs TOT--SEPEKO"
,,,1,"CHIVAS REGAL 12 YRS 30ML TOT",1,TOT



,"Chivas Regal 12yrs TOT--SEKENANI"
,,,1,"CHIVAS REGAL 12 YRS 30ML TOT",1,TOT



,"FAMOUS GROUSE BT--SEPEKO"
,,,1,"FAMOUS GROUSE 30ML TOT",25,TOT



,"FAMOUS GROUSE BT--SEKENANI"
,,,1,"FAMOUS GROUSE 30ML TOT",25,TOT



,"FAMOUS GROUSE TOT--SEPEKO"
,,,1,"FAMOUS GROUSE 30ML TOT",1,TOT



,"FAMOUS GROUSE TOT--SEKENANI"
,,,1,"FAMOUS GROUSE 30ML TOT",1,TOT



,"Grants BT--SEPEKO"
,,,1,"GRANTS 30ML TOT",25,TOT



,"Grants BT--SEKENANI"
,,,1,"GRANTS 30ML TOT",25,TOT



,"Grants TOT--SEPEKO"
,,,1,"GRANTS 30ML TOT",1,TOT



,"Grants TOT--SEKENANI"
,,,1,"GRANTS 30ML TOT",1,TOT



,"J & B Rare BT--SEPEKO"
,,,1,"J&B RARE 30ML TOT",25,TOT



,"Cellar Cask Red Sweet Wine 5 Litre--SEPEKO"
,,,1,"CELLAR CASK JOHANNISBERGER RED WINE 200ML GLASS",25,GLASSES



,"J & B Rare BT--SEKENANI"
,,,1,"J&B RARE 30ML TOT",25,TOT



,"Cellar Cask Red Sweet Wine 5 Litre--SEKENANI"
,,,1,"CELLAR CASK JOHANNISBERGER RED WINE 200ML GLASS",25,GLASSES



,"J & B Rare TOT--SEPEKO"
,,,1,"J&B RARE 30ML TOT",1,TOT



,"J & B Rare TOT--SEKENANI"
,,,1,"J&B RARE 30ML TOT",1,TOT



,"JOHNNIE WALKER BLACK LABEL BT--SEPEKO"
,,,1,"JOHNNIE WALKER DOUBLE BLACK 30ML TOT",25,TOT



,"Cellar Cask White Sweet Wine 5 Litre--SEPEKO"
,,,1,"CELLAR CASK JOHANNISBERGER WHITE WINE 200ML GLASS",25,GLASSES



,"JOHNNIE WALKER BLACK LABEL BT--SEKENANI"
,,,1,"JOHNNIE WALKER BLACK LABEL 30ML TOT",25,TOT



,"Cellar Cask White Sweet Wine 5 Litre--SEKENANI"
,,,1,"CELLAR CASK JOHANNISBERGER WHITE WINE 200ML GLASS",25,GLASSES



,"House Wines Red Sweet Gls--SEPEKO"
,,,1,"CELLAR CASK JOHANNISBERGER RED WINE 200ML GLASS",1,GLASSES



,"House Wines White Sweet Gls--SEPEKO"
,,,1,"CELLAR CASK JOHANNISBERGER WHITE WINE 200ML GLASS",1,GLASSES



,"JOHNNIE WALKER red label 750ML BT--SEPEKO"
,,,1,"JOHNNIE WALKER RED LABEL 30ML TOT",25,TOT



,"House Wines Red Sweet Gls--SEKENANI"
,,,1,"CELLAR CASK JOHANNISBERGER RED WINE 200ML GLASS",1,GLASSES



,"JOHNNIE WALKER red label 750ML BT--SEKENANI"
,,,1,"JOHNNIE WALKER RED LABEL 30ML TOT",25,TOT



,"House Wines White Sweet Gls--SEKENANI"
,,,1,"CELLAR CASK JOHANNISBERGER WHITE WINE 200ML GLASS",1,GLASSES



,"House Wines Red Dry Gls--SEPEKO"
,,,1,"DROSTYHOFF DRY RED GLASS 200ML",1,Ml



,"VAT 69 BT--SEPEKO"
,,,1,"VAT 69 WHISKEY 30ML TOT",25,TOT



,"CHRISTMAS TRIPPLE  NYAMA PLATTER--BUTCHERY"
,,,1,MBUZI,2,Kilogram
,,,2,BROILER,2,select
,,,3,POTATOES,2.5,Kilogram



,"VAT 69 BT--SEKENANI"
,,,1,"VAT 69 WHISKEY 30ML TOT",25,TOT



,"VAT 69 TOT--SEPEKO"
,,,1,"VAT 69 WHISKEY 30ML TOT",1,TOT



,"House Wines White Dry Gls--SEKENANI"
,,,1,"DROSTDY HOF PREMIER GRAND CRU WHITE WINE 200ML GLASS",1,select



,"VAT 69 TOT--SEKENANI"
,,,1,"VAT 69 WHISKEY 30ML TOT",1,TOT



,"House Wines White Dry Gls--SEPEKO"
,,,1,"DROSTDY HOF PREMIER GRAND CRU WHITE WINE 200ML GLASS",1,select



,"Cardhu BT--SEPEKO"
,,,1,"CARDHU WHISKEY 30ML TOT",25,TOT



,"Cardhu BT--SEKENANI"
,,,1,"CARDHU WHISKEY 30ML TOT",25,TOT



,"Four Cousins Red BT--SEPEKO"
,,,1,"FOUR COUSINS SWEET RED BOTTLE 750ML",1,Bottle



,"Cardhu TOT--SEPEKO"
,,,1,"CARDHU WHISKEY 30ML TOT",1,TOT



,"Four Cousins Red BT--SEKENANI"
,,,1,"FOUR COUSINS SWEET RED BOTTLE 750ML",1,Bottle



,"Cardhu TOT--SEKENANI"
,,,1,"CARDHU WHISKEY 30ML TOT",25,TOT



,"Four Cousins White BT--SEPEKO"
,,,1,"FOUR COUSINS SWEET WHITE BOTTLE 750ML",1,Bottle



,"Four Cousins White BT--SEKENANI"
,,,1,"FOUR COUSINS SWEET WHITE BOTTLE 750ML",1,Bottle



,"Glenfiddich 12rs 750ML BT--SEPEKO"
,,,1,"GLENFIDDICH WHISKEY 12 YEARS 30ML TOT",25,TOT



,"Glenfiddich 12rs 750ML BT--SEKENANI"
,,,1,"GLENFIDDICH WHISKEY 12 YEARS 30ML TOT",25,TOT



,"Glenfiddich 12rs TOT--SEPEKO"
,,,1,"GLENFIDDICH WHISKEY 12 YEARS 30ML TOT",1,TOT



,"Robertson Red BT--SEPEKO"
,,,1,"ROBERTSON SWEET RED BOTTLE 750ML",1,Bottle



,"Robertson Red BT--SEKENANI"
,,,1,"ROBERTSON SWEET RED BOTTLE 750ML",1,Bottle



,"Glenfiddich 12rs TOT--SEKENANI"
,,,1,"GLENFIDDICH WHISKEY 12 YEARS 30ML TOT",1,TOT



,"Robertson White BT--SEPEKO"
,,,1,"ROBERTSON SWEET WHITE BOTTLE 750ML",1,Bottle



,"Robertson White BT--SEKENANI"
,,,1,"ROBERTSON SWEET WHITE BOTTLE 750ML",1,Bottle



,"CHICKEN KENYA PLATTER(Kienyeji)--KITCHEN"



,"GLENFIDDICH 15YRS TOT--SEPEKO"
,,,1,"GLENFIDDICH WHISKEY 15 YEARS 30ML TOT",1,TOT



,"MARINATED GRILLED CHICKEN--KITCHEN"
,,,1,POTATOES,0.25,Kilogram
,,,2,"CHICKEN LEG 330g",1,Kilogram
,,,3,UGALI,1,PORTION



,"GLENFIDDICH 15YRS TOT--SEKENANI"
,,,1,"GLENFIDDICH WHISKEY 15 YEARS 30ML TOT",1,TOT



,"4TH STREET RED WINE BOTTLE--SEKENANI"
,,,1,"FOURTH STREET SWEET RED BOTTLE 750ML",1,Bottle



,"Glenfiddich 18yrs 750ML BT--SEPEKO"
,,,1,"GLENFIDDICH WHISKEY 18 YEARS 30ML TOT",25,TOT



,"4TH STREET WHITE WINE BOTTLE--SEPEKO"
,,,1,"FOURTH STREET SWEET WHITE BOTTLE 750ML",1,Bottle



,"Glenfiddich 18yrs 750ML BT--SEKENANI"
,,,1,"GLENFIDDICH WHISKEY 18 YEARS 30ML TOT",25,TOT



,"FISH IN LEMON BUTTER SAUCE--KITCHEN"
,,,1,POTATOES,0.33,Kilogram
,,,2,"FISH IN LEMON FILLET (NILE PERCH) 250g",1,select
,,,3,RICE,1,PORTION



,"GLENFIDDICH 18YRS TOT--SEKENANI"
,,,1,"GLENFIDDICH WHISKEY 18 YEARS 30ML TOT",1,select



,"Glenkinchie 12yrs BT--SEPEKO"
,,,1,"GLENKINCHIE WHISKEY 12 YEARS 30ML TOT",25,TOT



,"Glenkinchie 12yrs BT--SEKENANI"
,,,1,"GLENKINCHIE WHISKEY 12 YEARS 30ML TOT",25,TOT



,"Glenkinchie 12yrs TOT--SEPEKO"
,,,1,"GLENKINCHIE WHISKEY 12 YEARS 30ML TOT",1,TOT



,"Glenkinchie 12yrs TOT--SEKENANI"
,,,1,"GLENKINCHIE WHISKEY 12 YEARS 30ML TOT",1,TOT



,"Moscato White BT--SEPEKO"
,,,1,"MOSCATO SWEET WHITE BOTTLE 750ML",1,Bottle



,"Moscato White BT--SEKENANI"
,,,1,"MOSCATO SWEET WHITE BOTTLE 750ML",1,Bottle



,"Glenmorangie 12yrs BT--SEPEKO"
,,,1,"GLENMORANGIE WHISKEY 12 YEARS 30ML TOT",25,TOT



,"Lagavulin 16yrs BT--SEPEKO"
,,,1,"LAGAVULIN WHISKEY 16 YEARS 30ML TOT",25,TOT



,"Glenmorangie 12yrs BT--SEKENANI"
,,,1,"GLENMORANGIE WHISKEY 12 YEARS 30ML TOT",25,TOT



,"Glenmorangie 12yrs TOT--SEPEKO"
,,,1,"GLENMORANGIE WHISKEY 12 YEARS 30ML TOT",1,TOT



,"Glenmorangie 12yrs TOT--SEKENANI"
,,,1,"GLENMORANGIE WHISKEY 12 YEARS 30ML TOT",1,TOT



,"Lagavulin 16yrs BT--SEKENANI"
,,,1,"LAGAVULIN WHISKEY 16 YEARS 30ML TOT",25,TOT



,"Drostdy Hof Claret Red BT--SEPEKO"
,,,1,"DROSTDY HOF CLARET SELECT RED DRY BOTTLE 750ML",1,Bottle



,"LAGAVULIN 16YRS TOT--SEPEKO"
,,,1,"LAGAVULIN WHISKEY 16 YEARS 30ML TOT",1,select



,"Drostdy Hof Claret Red BT--SEKENANI"
,,,1,"DROSTDY HOF CLARET SELECT RED DRY BOTTLE 750ML",1,Bottle



,"LAGAVULIN 16YRS TOT--SEKENANI"
,,,1,"LAGAVULIN WHISKEY 16 YEARS 30ML TOT",1,select



,"Oban 14yrs BT--SEPEKO"
,,,1,"OBAN WHISKEY 14 YEARS 30ML TOT",25,TOT



,"Oban 14yrs BT--SEKENANI"
,,,1,"OBAN WHISKEY 14 YEARS 30ML TOT",25,TOT



,"Singleton Tailfire BT--SEPEKO"
,,,1,"SINGLETON TAILFIRE WHISKEY  30ML TOT",25,TOT



,"Singleton Tailfire BT--SEKENANI"
,,,1,"SINGLETON TAILFIRE WHISKEY  30ML TOT",25,TOT



,"Singleton Tailfire TOT--SEPEKO"
,,,1,"SINGLETON TAILFIRE WHISKEY  30ML TOT",1,TOT



,"Singleton Tailfire TOT--SEKENANI"
,,,1,"SINGLETON TAILFIRE WHISKEY  30ML TOT",1,TOT



,"Singleton Dufftown BT--SEPEKO"
,,,1,"SINGLETON DUFFTOWN WHISKEY 12 YEARS 30ML TOT",25,TOT



,"Singleton Dufftown BT--SEKENANI"
,,,1,"SINGLETON DUFFTOWN WHISKEY 12 YEARS 30ML TOT",25,TOT



,"Singleton Dufftown TOT--SEPEKO"
,,,1,"SINGLETON DUFFTOWN WHISKEY 12 YEARS 30ML TOT",1,TOT



,"Singleton Dufftown TOT--SEKENANI"
,,,1,"SINGLETON DUFFTOWN WHISKEY 12 YEARS 30ML TOT",1,TOT



,"SINGLETON SUNRAY--SEPEKO"
,,,1,"SINGLETON SUNRAY 750ML BT",1,Bottle



,"PILSNER LAGER  6 BOTTLES--SEKENANI"
,,,1,"PILSNER LAGER BEER 500ML",6,Bottle



,"Talisker 10yrs  BT--SEPEKO"
,,,1,"TALISKER WHISKEY 30 ML TOT",25,TOT



,"Talisker 10yrs  BT--SEKENANI"
,,,1,"TALISKER WHISKEY 30 ML TOT",25,TOT



,"Talisker 10yrs  TOT--SEPEKO"
,,,1,"TALISKER WHISKEY 30 ML TOT",1,TOT



,"Talisker 10yrs  TOT--SEKENANI"
,,,1,"TALISKER WHISKEY 30 ML TOT",1,TOT



,"Tequila BT--SEPEKO"
,,,1,"CAMINO TEQUILA REAL 30ML TOT",25,TOT



,"Tequila BT--SEKENANI"
,,,1,"CAMINO TEQUILA REAL 30ML TOT",25,TOT



,"Tequila TOT--SEPEKO"
,,,1,"CAMINO TEQUILA REAL 30ML TOT",1,TOT



,"Tequila TOT--SEKENANI"
,,,1,"CAMINO TEQUILA REAL 30ML TOT",1,TOT



,"Don Julio BT--SEPEKO"
,,,1,"DON JULIO TEQUILA",25,TOT



,"Don Julio BT--SEKENANI"
,,,1,"DON JULIO TEQUILA",25,TOT



,"Don Julio TOT--SEPEKO"
,,,1,"DON JULIO TEQUILA",1,TOT



,"Don Julio TOT--SEKENANI"
,,,1,"DON JULIO TEQUILA",1,TOT



,"Drostdy Hof Grand Cru Semi White BT--SEPEKO"
,,,1,"DROSTDY HOF GRAND CRU SEMI SWEET WHITE WINE BT",1,Bottle



,"Drostdy Hof Grand Cru Semi White BT--SEKENANI"
,,,1,"DROSTDY HOF GRAND CRU SEMI SWEET WHITE WINE BT",1,Bottle



,"Cabernet Sauvignon Red BT--SEPEKO"
,,,1,"CABERNET SAUVIGNON SEMI SWEET RED WINE 750ML BOTTLE",1,Bottle



,"Cabernet Sauvignon Red BT--SEKENANI"
,,,1,"CABERNET SAUVIGNON SEMI SWEET RED WINE 750ML BOTTLE",1,Bottle



,Eno--SEPEKO
,,,1,ENO,1,Packet



,"Sauvingon Blanc Dry White BT--SEPEKO"
,,,1,"SAUVIGNON LEPIGRAMME SEMI SWEET WHITE WINE 750ML BOTTLE",1,Bottle



,"Sauvingon Blanc Dry White BT--SEKENANI"
,,,1,"SAUVIGNON LEPIGRAMME SEMI SWEET WHITE WINE 750ML BOTTLE",1,Bottle



,"Lepigramme BT--SEPEKO"
,,,1,"SAUVIGNON LEPIGRAMME SEMI SWEET WHITE WINE 750ML BOTTLE",1,Bottle



,"Lepigramme BT--SEKENANI"
,,,1,"SAUVIGNON LEPIGRAMME SEMI SWEET WHITE WINE 750ML BOTTLE",1,Bottle



,"4th Street Red BT--SEPEKO"
,,,1,"FOURTH STREET SWEET RED BOTTLE 750ML",1,Bottle



,"4th Street Red BT--SEKENANI"
,,,1,"FOURTH STREET SWEET RED BOTTLE 750ML",1,Bottle



,"Merlot (Semi Sweet Red) BT--SEPEKO"
,,,1,"MERLOT LEPIGRAMME SEMI SWEET WHITE WINE 750ML BOTTLE",1,Bottle



,"Merlot (Semi Sweet Red) BT--SEKENANI"
,,,1,"MERLOT LEPIGRAMME SEMI SWEET WHITE WINE 750ML BOTTLE",1,Bottle



,"Pinot Noir BT--SEPEKO"
,,,1,"LEPIGRAMME PINOT NOIR SEMI SWEET RED WINE 750ML BOTTLE",1,Bottle



,"Pinot Noir BT--SEKENANI"
,,,1,"LEPIGRAMME PINOT NOIR SEMI SWEET RED WINE 750ML BOTTLE",1,Bottle



,"Pepper Steak--KITCHEN"
,,,1,POTATOES,0.5,Kilogram
,,,2,"PEPPER STEAK BEEF FILLET 250g",1,PORTION



,"Stir Fried Beef Fillet--KITCHEN"
,,,1,"STIR FRIED BEEF FILLET 250g",1,PORTION
,,,2,POTATOES,0.25,Kilogram
,,,3,RICE,1,PORTION



,"Steak & Eggs Omellette--KITCHEN"
,,,1,EGGS,3,Pieces
,,,2,POTATOES,0.125,Kilogram
,,,3,"STEAK AND EGGS BEEF FILLET 125g",1,PORTION



,"ENGLISH FISH & CHIPS--KITCHEN"
,,,1,"ENGLISH FISH FILLET (NILE PERCH) 250g",1,select
,,,2,POTATOES,0.33,Kilogram



,"TUSKER LITE  6 BOTTLES--SEPEKO"
,,,1,"TUSKER LITE BEER 330ML",6,Bottle



,"Steak & Mushroom Sandwich--KITCHEN"
,,,1,POTATOES,0.25,Kilogram
,,,2,"STEAK AND MUSHROOM SANDWICH BEEF FILLET 125g",1,select



,"Full Smith Breakfast--KITCHEN"
,,,1,EGGS,2,Pieces
,,,2,POTATOES,0.125,Kilogram
,,,3,"BEEF SAUSAGES",1,Pieces
,,,4,BACON,0.066,Kilogram
,,,5,"FULL BREAKFAS MILK",1.3,PORTION
,,,6,COCKTAIL,0.5,GLASSES



,"Room Breakfast--KITCHEN"
,,,1,"ROOM BREKFAST MIL",1.3,PORTION
,,,2,EGGS,2,Pieces
,,,3,POTATOES,0.125,Kilogram
,,,4,BACON,0.066,Kilogram
,,,5,"BEEF SAUSAGES",1,Pieces
,,,6,COCKTAIL,0.5,GLASSES



,"Omelettes Plain--KITCHEN"
,,,1,POTATOES,0.125,Kilogram
,,,2,EGGS,3,Pieces



,"Omelettes Spanish--KITCHEN"
,,,1,POTATOES,0.125,Kilogram
,,,2,EGGS,3,Pieces



,"Two Eggs With Toast--KITCHEN"
,,,1,EGGS,2,Pieces



,"Two Eggs With Toast & Saute Potatoes--KITCHEN"
,,,1,EGGS,2,Pieces
,,,2,POTATOES,0.125,Kilogram



,"Two Eggs With Toast, Bacon or Ham--KITCHEN"
,,,1,EGGS,2,Pieces
,,,2,POTATOES,0.125,Kilogram
,,,3,BACON,0.066,Kilogram



,"Two Eggs With Toast, Bacon or 2 Sausages--KITCHEN"
,,,1,"BEEF SAUSAGES",1,Pieces
,,,2,POTATOES,0.125,Kilogram
,,,3,BACON,0.066,Kilogram



,"Sausage, Cheese, Onions & Tomatoes--KITCHEN"
,,,1,"BEEF SAUSAGES",1,Pieces
,,,2,POTATOES,0.125,Kilogram
,,,3,EGGS,3,Pieces



,Denver--KITCHEN
,,,1,POTATOES,0.125,Kilogram
,,,2,EGGS,3,Pieces



,"Bacon & Cheese--KITCHEN"
,,,1,BACON,0.066,Kilogram
,,,2,EGGS,3,Pieces
,,,3,POTATOES,0.125,Kilogram



,"Western Ham, Tomatoes, Onion & Bell Pepper--KITCHEN"
,,,1,POTATOES,0.125,Kilogram
,,,2,EGGS,3,Pieces



,"Mushroom, Basil & Cheese--KITCHEN"
,,,1,POTATOES,0.125,Kilogram
,,,2,EGGS,3,Pieces



,"Spanish & Feta--KITCHEN"
,,,1,POTATOES,0.125,Kilogram
,,,2,EGGS,3,Pieces



,"Tom & Jerry Fish Finger--KITCHEN"
,,,1,"TOM AND JERRY FISH FILLET (NILE PERCH) 125g",1,PORTION
,,,2,POTATOES,0.25,Kilogram
,,,3,EGGS,1,Pieces



,"Two Eggs With Toast--KITCHEN"
,,,1,EGGS,2,Pieces



,"Four Snacks--KITCHEN"
,,,1,"BEEF SAMOSA",2,Pieces
,,,2,"BEEF SAUSAGES",2,Pieces
,,,3,POTATOES,0.25,Kilogram
,,,4,LIME,0.5,Piece



,"Trio Feta Samosa--KITCHEN"
,,,1,POTATOES,0.25,Kilogram



,"Trio Beef Samosa--KITCHEN"
,,,1,POTATOES,0.25,Kilogram
,,,2,"BEEF SAMOSA",3,Pieces
,,,3,LIME,0.5,Piece



,"Gordon'S PINK TOT--SEKENANI"
,,,1,"GORDONS PINK GIN 30ML TOT",1,select



,"GILBEYS GIN 750ML BT--SEKENANI"
,,,1,"GILBEYS GIN 30ML TOT",25,select



,"Chilli Garlic Chicken Wings--KITCHEN"
,,,1,"CHICKEN WINGS 250g",1,Kilogram
,,,2,POTATOES,0.25,Kilogram



,"Mixed Grill--KITCHEN"
,,,1,"STIR FRIED BEEF FILLET 250g",1,select
,,,2,POTATOES,1.5,Kilogram
,,,3,"MIXED GRILL PORK CHOPS 375g",1,select
,,,4,"CHICKEN DRUMSTICKS 330g",1,Kilogram
,,,5,BEEF,3,Pieces



,"BREADED PORK CHOPS(Schnitzel)--KITCHEN"
,,,1,POTATOES,0.5,Kilogram
,,,2,EGGS,1,Pieces
,,,3,"PORK CHOPS 250g",1,select



,"BREADED CHICKEN--KITCHEN"
,,,1,"CHICKEN LEG 330g",1,Kilogram
,,,2,POTATOES,0.33,Kilogram
,,,3,EGGS,1,Pieces



,"CELLAR CASK WHITE WINE BOTTLE--SEKENANI"
,,,1,"CELLAR CASK SWEET WHITE 750ML",1,Bottle



,"KIDDIE BURGER--KITCHEN"
,,,1,POTATOES,0.25,Kilogram
,,,2,"KIDDIE BURGER PATTY MINCED MEAT 50g",1,Kilogram



,"BUFFET SODA-FANTA ORANGE--SEKENANI"
,,,1,"FANTA ORANGE SODA 300ML",1,Bottle



,"Chef's Salad of The day Starter--KITCHEN"
,,,1,POTATOES,0.125,Kilogram



,"Chef's Salad of The day Full Meal--KITCHEN"
,,,1,POTATOES,0.125,Kilogram



,"The Smith Signature Salad Starter--KITCHEN"
,,,1,EGGS,1,Pieces
,,,2,BACON,0.066,Kilogram
,,,3,POTATOES,0.125,Kilogram



,"The Smith Signature Salad as Full Meal--KITCHEN"
,,,1,EGGS,1,select
,,,2,BACON,0.066,Kilogram
,,,3,POTATOES,0.25,Kilogram



,"Chicken Ceasar Salad Starter--KITCHEN"
,,,1,POTATOES,0.125,Kilogram
,,,2,BACON,0.066,Kilogram



,"Chicken Ceasar Salad as full meal--KITCHEN"
,,,1,BACON,0.066,Kilogram
,,,2,POTATOES,0.125,Kilogram



,"Hungarian Beef Goulash Soup--KITCHEN"
,,,1,POTATOES,0.125,Kilogram
,,,2,HUNGARIAN,1,PORTION



,"Two Eggs With Toast--KITCHEN"
,,,1,EGGS,2,Pieces



,"Beef Burger--KITCHEN"
,,,1,POTATOES,0.33,Kilogram
,,,2,BACON,0.066,Kilogram
,,,3,"BEEF BURGER PATTY MINCED MEAT 100g",1,Kilogram



,"TEXAS BURGER--KITCHEN"
,,,1,POTATOES,0.33,Kilogram
,,,2,BEEF,1,Kilogram
,,,3,BACON,0.066,Kilogram
,,,4,EGGS,1,select



,"BLT Sandwich--KITCHEN"
,,,1,POTATOES,0.33,Kilogram
,,,2,BACON,1,Kilogram



,"Club Sandwich--KITCHEN"
,,,1,POTATOES,0.33,Kilogram
,,,2,"CLUB SANDWICH BONELESS CHICKEN 125 GMS",1,Kilogram



,"Chicken Nuggets--KITCHEN"
,,,1,"CHICKEN NUGGETS BONELESS CHICKEN 200g",1,PORTION
,,,2,POTATOES,.33,Kilogram
,,,3,EGGS,1,Pieces



,Drumsticks--KITCHEN
,,,1,POTATOES,0.33,Kilogram
,,,2,"CHICKEN DRUMSTICKS 330g",1,Kilogram



,"Home Fries Delight--KITCHEN"
,,,1,"HOMEFRIES DELIGHT MINCED MEAT 250g",1,Kilogram
,,,2,POTATOES,0.33,Kilogram
,,,3,EGGS,2,Pieces



,"Fish Goujons--KITCHEN"
,,,1,"FISH GOUJON FILLET (NILE PERCH) 125g",1,PORTION
,,,2,POTATOES,.33,Kilogram
,,,3,EGGS,1,Pieces



,"Pork Chops--KITCHEN"
,,,1,POTATOES,.33,Kilogram
,,,2,PORK,1,PORTION



,"Pork Spare Ribs--KITCHEN"
,,,1,POTATOES,.33,Kilogram
,,,2,SPARE,1,PORTION



,"T - Bone Steak--KITCHEN"
,,,1,POTATOES,.33,Kilogram
,,,2,T-BONE,1,PORTION



,"Rib Eye Steak--KITCHEN"
,,,1,POTATOES,.33,Kilogram
,,,2,RIB,1,PORTION



,"Crispy Fish Fillet(Schnitzel)--KITCHEN"
,,,1,"CRISPY FISH FILLET (NILE PERCH) 250g",1,PORTION
,,,2,POTATOES,.33,Kilogram
,,,3,EGGS,1,Pieces



,"Pan Fried Fish Fillet--KITCHEN"
,,,1,POTATOES,.33,Kilogram
,,,2,PAN,1,PORTION



,"Chicken Maryland--KITCHEN"
,,,1,"CHICKEN MARYLAND BONELESS CHICKEN 250g",1,PORTION
,,,2,POTATOES,.33,Kilogram
,,,3,EGGS,1,Pieces



,"Lamb Chops--KITCHEN"
,,,1,POTATOES,.33,Kilogram
,,,2,LAMBCHOPS,1,PORTION



,"Zappa black BT--SEPEKO"
,,,1,"ZAPPA BLACK BT 750 ML",1,Bottle



,"Fish Zanzibar--KITCHEN"
,,,1,POTATOES,0.25,Kilogram
,,,2,"WHOLE FISH TILALPIA PIECE",1,select
,,,3,UGALI,1,PORTION



,"Tilapia Nyanza Style--KITCHEN"
,,,1,POTATOES,0.25,Kilogram
,,,2,"WHOLE FISH TILALPIA PIECE",1,Pieces
,,,3,"LIME FRESH",0.5,Piece
,,,4,UGALI,1,PORTION



,"Oriental Fish Masala--KITCHEN"
,,,1,"ORIENTAL FISH FILLET (NILE PERCH) 250g",1,PORTION
,,,2,POTATOES,.25,Kilogram
,,,3,RICE,1,PORTION



,"STARWBERRY DELIGHT--KITCHEN"
,,,1,"YOGHURT STRAWBERRY CAN 250g",1,select



,"Mutton Curry--KITCHEN"
,,,1,POTATOES,0.25,Kilogram
,,,2,"MUTTON CURRY 0.25 KG",1,PORTION
,,,3,RICE,1,PORTION



,"CHICKEN DHANIA--KITCHEN"
,,,1,"CHICKEN DHANIA BONELESS CHICKEN 250g",1,PORTION
,,,2,POTATOES,0.25,Kilogram
,,,3,RICE,1,PORTION



,"Stir Fried Chicken--KITCHEN"
,,,1,"STIR FRIED BONELESS CHICKEN 250g",1,PORTION
,,,2,POTATOES,.25,Kilogram
,,,3,RICE,1,PORTION



,"Tasty African Beef Stew--KITCHEN"
,,,1,"AFRICAN BEEF STEW TOPSIDE 250g",1,PORTION
,,,2,POTATOES,.25,Kilogram
,,,3,RICE,1,PORTION



,"Fried Beef--KITCHEN"
,,,1,"FRIED BEEF TOPSIDE 250g",1,PORTION
,,,2,POTATOES,.25,Kilogram
,,,3,UGALI,1,PORTION



,"BUFFET SODA-STONEY--SEKENANI"
,,,1,"STONEY TANGAWIZI SODA 300ml",1,Bottle



,"MBUZI TUMBUKIZA 1KG--BUTCHERY"
,,,1,POTATOES,.5,Kilogram
,,,2,MBUZI,1,Kilogram



,Chips--KITCHEN
,,,1,POTATOES,.5,Kilogram



,"Masala Chips--KITCHEN"
,,,1,POTATOES,.5,Kilogram



,"Roast Potatoes--KITCHEN"
,,,1,POTATOES,.5,Kilogram



,"Rosemary Potatoes--KITCHEN"
,,,1,POTATOES,.5,Kilogram



,"Lyonnaise Potatoes--KITCHEN"
,,,1,POTATOES,.5,Kilogram



,Kienyeji--KITCHEN
,,,1,POTATOES,.5,Kilogram



,Chips--BUTCHERY
,,,1,POTATOES,.5,Kilogram



,"Roast Potatoes--BUTCHERY"
,,,1,POTATOES,.5,Kilogram



,"Rosemary Potatoes--BUTCHERY"
,,,1,POTATOES,.5,Kilogram



,"Lyonnaise Potatoes--BUTCHERY"
,,,1,POTATOES,.5,Kilogram



,"Two Sausages--KITCHEN"
,,,1,"BEEF SAUSAGES",2,Pieces



,Kienyeji--BUTCHERY
,,,1,POTATOES,.5,Kilogram



,"TUSKER MALT  6 BOTTLES--SEKENANI"
,,,1,"TUSKER MALT BEER 330ML",6,Bottle



,"Pork Spare Ribs Platter--KITCHEN"
,,,1,"PORK SPARE RIBS 250g",4,select
,,,2,POTATOES,1,Kilogram



,"Zappa black TOT--SEKENANI"
,,,1,"ZAPPA SAMBUCA BLACK 30ML TOT",1,select



,"SNAPP CIDER  6 BOTTLES--SEPEKO"
,,,1,"SNAPP CIDER 300ML",6,Bottle



,"CHICKEN KENYA PLATTER(Broiler)--KITCHEN"
,,,1,"BROILER CHICKEN WHOLE",1,select
,,,2,POTATOES,1.5,Kilogram
,,,3,UGALI,2,PORTION



,"CHRISTMAS MEDIUM PLATTER--BUTCHERY"
,,,1,FLAMBEE,1,Kilogram
,,,2,"BEEF SAUSAGES",2,select
,,,3,"CHICKEN WINGS 250g",1,select
,,,4,POTATOES,0.5,Kilogram
,,,5,"MBUZI 1KG",1,Kilogram



,"CHRISTMAS MIXED GRILL PLATTER--BUTCHERY"
,,,1,POTATOES,1.5,Kilogram
,,,2,CHICKEN,1,Kilogram
,,,3,MIXED,1,select
,,,4,"BEEF SAUSAGES",3,select
,,,5,MIXED,1,select



,"GORDONS DRY GIN 750ML BT--SEKENANI"
,,,1,"GORDON DRY GIN 750 ML BT",1,Bottle



,"Zappa Green TOT--SEKENANI"
,,,1,"ZAPPA SAMBUCA GREEN 30ML TOT",1,select



,"ABSOLUTE VODKA 750ML BT--SEPEKO"
,,,1,"ABSOLUTE VODKA 750 ML BT",1,Bottle



,"TANQUERAY NO. TEN TOT--SEKENANI"
,,,1,"TANQUERAY 10 DRY GIN 30 ML",1,select



,"MBUZI WET FRY 1/2 KG--BUTCHERY"
,,,1,"MBUZI 1KG",0.5,Kilogram



,"MBUZI TUMBUKIZA  0.1--BUTCHERY"
,,,1,"MBUZI 1KG",0.1,Kilogram



,"MBUZI CHOMA  0.75--BUTCHERY"
,,,1,"MBUZI 1KG",0.75,Kilogram



,"MBUZI CHOMA 1KG--BUTCHERY"
,,,1,"MBUZI 1KG",1,Kilogram



,"MBUZI DRY FRY  0.1--BUTCHERY"
,,,1,"MBUZI 1KG",0.1,Kilogram



,"MBUZI WET FRY  0.1--BUTCHERY"
,,,1,"MBUZI 1KG",0.1,Kilogram



,"MBUZI TAKE AWAY 1KG--BUTCHERY"
,,,1,"MBUZI 1KG",1,Kilogram



,"PIN TYPE BULB 9W (WARM WHITE)--SEKENANI"
,,,1,"PIN TYPE BULB 9W (WARM WHITE)",1,Piece



,"MBUZI CHOMA 0.1 Kg--BUTCHERY"
,,,1,"MBUZI 1KG",0.1,Kilogram



,"MBUZI WET FRY 0.75KG--BUTCHERY"
,,,1,"MBUZI 1KG",0.75,Kilogram



,"MBUZI DRY FRY   0.75--BUTCHERY"
,,,1,"MBUZI 1KG",0.75,Kilogram



,"MBUZI DRY FRY 1/2 KG--BUTCHERY"
,,,1,"MBUZI 1KG",0.5,Kilogram



,"MBUZI CHOMA QUARTER 0.25KG--BUTCHERY"
,,,1,"MBUZI 1KG",0.25,Kilogram



,"MBUZI TAKEAWAY 0.1--BUTCHERY"
,,,1,"MBUZI 1KG",0.1,Kilogram



,"MBUZI DRY FRY 1KG--BUTCHERY"
,,,1,"MBUZI 1KG",1,Kilogram



,"MTETA SOUP--KITCHEN"
,,,1,MTETA,1,Piece



,"Swimming School Kids--SEPEKO"
,,,1,"SWIMMING TAG",1,Pieces



,"BEN 10 MEAT BALLS--KITCHEN"
,,,1,POTATOES,0.125,Kilogram
,,,2,BEN,2,Kilogram



,"CHIPS & 2 SAUSAGES--KITCHEN"
,,,1,POTATOES,0.5,Kilogram
,,,2,"BEEF SAUSAGES",2,select



,"Kebab (1 Piece)--KITCHEN"
,,,1,EGGS,2,Pieces
,,,2,"KEBAB MINCED MEAT 100g",1,Kilogram



,"CHRISTMAS CHICKEN DRUMSTICKS--BUTCHERY"
,,,1,"CHICKEN DRUMSTICKS 330g",1,Kilogram
,,,2,POTATOES,0.33,Kilogram



,"CHRISTMAS MARINATED GRILLED CHICKEN--BUTCHERY"
,,,1,POTATOES,0.33,Kilogram
,,,2,"CHICKEN LEG 330g",1,Kilogram



,"FULL KUKU BROILER CHOMA--BUTCHERY"
,,,1,"BROILER CHICKEN WHOLE",1,Pieces



,"HALF KUKU BROILER CHOMA--BUTCHERY"
,,,1,"BROILER CHICKEN WHOLE",0.5,Pieces



,"FULL KUKU BROILER DRY FRY--BUTCHERY"
,,,1,"BROILER CHICKEN WHOLE",1,Pieces



,"FULL KUKU BROILER WET FRY--BUTCHERY"
,,,1,"BROILER CHICKEN WHOLE",1,Pieces



,"HALF KUKU BROILER WET FRY--BUTCHERY"
,,,1,"BROILER CHICKEN WHOLE",0.5,Pieces



,"HALF KUKU BROILER  DRY FRY--BUTCHERY"
,,,1,"BROILER CHICKEN WHOLE",0.5,Pieces



,"FULL KUKU KIENYEJI WET FRY--BUTCHERY"
,,,1,"KIENYEJI CHICKEN WHOLE",1,Pieces



,"FULL KUKU KIENYEJI CHOMA--BUTCHERY"
,,,1,"KIENYEJI CHICKEN WHOLE",1,Pieces



,"JACK DANIELS 1 LITRE BT--SEKENANI"
,,,1,"JACK DANIELS OLD NO.7 30ML TOT",33,select



,"HALF KUKU KIENYEJI CHOMA--BUTCHERY"
,,,1,"KIENYEJI CHICKEN WHOLE",0.5,Pieces



,"HALF KUKU KIENYEJI WET FRY--BUTCHERY"
,,,1,"KIENYEJI CHICKEN WHOLE",0.5,Pieces



,"HALF KUKU KIENYEJI DRY FRY--BUTCHERY"
,,,1,"KIENYEJI CHICKEN WHOLE",0.5,Pieces



,"Smith Dawa Mug--KITCHEN"
,,,1,"HONEY JAR 40g",1,PORTION
,,,2,DAWA,1,PORTION



,"Glass of Milk--KITCHEN"
,,,1,MILK,1,PORTION



,"JOHNY WALKER DOUBLE BLACK TOT--SEPEKO"
,,,1,"JOHNNIE WALKER DOUBLE BLACK 30ML TOT",1,select



,"BUFFET SODA-BLACK CURRENT--SEPEKO"
,,,1,"FANTA BLACK CURRANT SODA 300ML",1,Bottle



,"CAMINO TEQUILA--SEKENANI"
,,,1,"CAMINO TEQUILA 750ML BT",1,Bottle



,BOEREWORS--KITCHEN
,,,1,POTATOES,0.125,Kilogram
,,,2,BOEREWORS,1,select



,"TUSKER LITE  6 BOTTLES--SEKENANI"
,,,1,"TUSKER LITE BEER 330ML",6,Bottle



,"BOMBAY SAPHIRE--SEKENANI"
,,,1,"BOMBAY SAPHIRE 750 ML BT",1,Bottle



,"Milk Shake Chocolate--KITCHEN"
,,,1,"MILKSHAKE MILK",1,select



,"BUFFET SODA-SPRITE--SEKENANI"
,,,1,"SPRITE SODA 300ML",1,Bottle



,"BUFFET SODA-FANTA PASSION--SEPEKO"
,,,1,"FANTA PASSION SODA 300ML",1,Bottle



,"BUFFET SODA-FANTA PASSION--SEKENANI"
,,,1,"FANTA PASSION SODA 300ML",1,Bottle



,"BUFFET SODA-FANTA PINEAPPLE--SEPEKO"
,,,1,"FANTA PINEAPPLE SODA 300ML",1,Bottle



,"MALBEC IMPERIAL VIN RED DRY WINE BOTTLE--SEPEKO"
,,,1,"CABERNET IMPERIAL VIN RED DRY WINE 750ML BOTTLE",1,Bottle



,"African Mixed Tea Pot--KITCHEN"



,"House Coffee--KITCHEN"
,,,1,MILK,1,PORTION



,"MILK ONLY TEA--KITCHEN"
,,,1,MILK,1.5,select



,"TUSKER MALT  6 BOTTLES--SEPEKO"
,,,1,"TUSKER MALT BEER 330ML",6,Bottle



,"Hot Chocolate--KITCHEN"
,,,1,"HOT CHOCOLATE MILK",1,PORTION



,"Caffe Latte--KITCHEN"
,,,1,"CAFFE LATTE MILK",1,PORTION
,,,2,MILK,1,PORTION



,"Cafe Mocha SGNL--KITCHEN"
,,,1,"CAFFE MOCHA MILK",1,PORTION



,"Cafe Mocha DBL--KITCHEN"
,,,1,"CAFFE MOCHA MILK",1,PORTION



,"Cappuccino SGNL--KITCHEN"
,,,1,"CAPPUCCINO SINGLE MILK",1,PORTION



,"Cappuccino DBL--KITCHEN"
,,,1,"CAPPUCCINO DOUBLE MILK",1,PORTION
,,,2,MILK,1,PORTION



,"Masala Tea Pot--KITCHEN"
,,,1,"MASALA TEA MILK",1.3,PORTION



,"Milk Shake Vanilla--KITCHEN"
,,,1,"MILKSHAKE MILK",1,PORTION



,"Milkshake Strawberry--KITCHEN"
,,,1,MILK,1,select



,"ABSOLUTE VODKA 750ML BT--SEKENANI"
,,,1,"ABSOLUTE VODKA 750 ML BT",1,Bottle



,Bacon--KITCHEN
,,,1,BACON,0.066,Kilogram



,"Glass of Juice(MANGO)--KITCHEN"
,,,1,"MANGO JUICE GLASS FRESH 300ML",1,GLASSES



,"Glass of Juice(PASSION)--KITCHEN"
,,,1,"PASSION JUICE GLASS FRESH 300ML",1,select



,"MILK ONLY COFFEE--KITCHEN"
,,,1,MILK,1.5,select



,"Glass of Juice(COCKTAIL)--KITCHEN"
,,,1,"COCKTAIL JUICE FRESH GLASS 300ML",1,select



,"J.WALKER PLATINUM 750ML BOTTLE--SEKENANI"
,,,1,"JOHNNIE WALKER 18 PLATINUM 30 ML TOT",25,select



,"BANANA BONANZA--KITCHEN"
,,,1,"YOGHURT VANILLA CAN 250G",1,Cans



,"MANGO FRESH--KITCHEN"
,,,1,"YOGHURT VANILLA CAN 250G",1,Cans



,"SMITH COMBO--KITCHEN"
,,,1,"YOGHURT VANILLA CAN 250G",1,Cans



,"Meat Deluxe Pizza--KITCHEN"
,,,1,"MEAT DELUXE TOPSIDE 125g",1,PORTION



,"STAFF SUGAR--SEKENANI"
,,,1,"STAFF SUGAR",1,Kilogram



,"Kids Activities With Swimming--SEPEKO"
,,,1,"SWIMMING TAG",1,Pieces



,"CELLAR CASK RED WINE BOTTLE--SEKENANI"
,,,1,"CELLAR CASK SWEET RED 750ML",1,Bottle



,"BUFFET SODA-COKE--SEPEKO"
,,,1,"COKE SODA 300ML",1,Bottle



,"JAMESON ORIGINAL TOT--SEPEKO"
,,,1,"JAMESON ORIGINAL 750ML 30ML TOT",1,TOT



,"Bombay Sapphire TOT--SEPEKO"
,,,1,"BOMBAY SAPHIRE 30ML TOT",1,TOT



,"Pick N Peel Apple 1ltr--SEPEKO"
,,,1,"PICK N PEEL JUICE APPLE 1 LTR",1,PACKET



,"Zappa black TOT--SEPEKO"
,,,1,"ZAPPA SAMBUCA BLACK 30ML TOT",1,select



,"TUSKER LAGER 6 BOTTLES--SEPEKO"
,,,1,"TUSKER LAGER BEER 500ML",6,Bottle



,"WHITE CAP LITE  6 BOTTLES--SEPEKO"
,,,1,"WHITE CAP LITE BEER 330ML",6,Bottle



,"WHITECAP LAGER 6 BOTTLES--SEKENANI"
,,,1,"WHITE CAP LAGER BEER 500ML",6,Bottle



,MEATBALLS--KITCHEN
,,,1,"MEAT BALLS MINCED MEAT 125g",1,select
,,,2,POTATOES,0.25,Kilogram



,"SAVANNA CIDER  6 BOTTLES--SEKENANI"
,,,1,"SAVANNAH CIDER",6,Bottle



,"Glass of Juice(PINEAPPLE MINT)--KITCHEN"
,,,1,"PINEAPPLE JUICE FRESH GLASS 300 ML",1,select



,"4TH STREET WHITE WINE BOTTLE--SEKENANI"
,,,1,"FOURTH STREET SWEET WHITE BOTTLE 750ML",1,Bottle



,"FULL KUKU KIENYEJI DRY FRY--BUTCHERY"
,,,1,"KIENYEJI CHICKEN WHOLE",1,select



,"BALOZI LAGER  6 BOTTLES--SEKENANI"
,,,1,"BALOZI LAGER BEER 500ML",6,Bottle



,"GUINESS LAGER  6 BOTTLES--SEKENANI"
,,,1,"GUINNESS KUBWA BEER 500ML",6,Bottle



,"WHITECAP LAGER 6 BOTTLES--SEPEKO"
,,,1,"WHITE CAP LAGER BEER 500ML",6,Bottle



,"GUINESS LAGER  6 BOTTLES--SEPEKO"
,,,1,"GUINNESS KUBWA BEER 500ML",6,Bottle



,"GUINNESS HOP--SEKENANI"
,,,1,"GUINESS HOP HOUSE SEKENANI",1,Bottle



,"GUINESS H.HSE LAGER  6 BOTTLES--SEKENANI"
,,,1,"GUINESS HOP HOUSE SEKENANI",6,Bottle



,"HEINNEKEN LAGER  6 BOTTLES--SEPEKO"
,,,1,"HEINEKEN BEER 330ml",6,Bottle



,"HEINNEKEN LAGER  6 BOTTLES--SEKENANI"
,,,1,"HEINEKEN BEER 330ml",6,Bottle



,"TUSKER PREMIUM ALE--SEPEKO"
,,,1,"TUSKER PREMIUM ALE BEER 500ML",6,Bottle



,"TUSKER PREMIUM ALE  6 BOTTLES--SEPEKO"
,,,1,"TUSKER PREMIUM ALE BEER 500ML",6,Bottle



,"DESPERADOS  6 BOTTLES--SEPEKO"
,,,1,DESPERADOS,6,Bottle



,"DESPERADOS  6 BOTTLES--SEKENANI"
,,,1,DESPERADOS,6,Bottle



,"TUSKER CIDER  6 BOTTLES--SEPEKO"
,,,1,"TUSKER CIDER 500ML",6,Bottle



,"TUSKER CIDER  6 BOTTLES--SEKENANI"
,,,1,"TUSKER CIDER 500ML",1,Bottle



,"SAVANNA CIDER  6 BOTTLES--SEPEKO"
,,,1,"SAVANNAH CIDER",6,Bottle



,"TROPICAL MIX--KITCHEN"
,,,1,"YOGHURT STRAWBERRY CAN 250g",1,select



,"SNAPP CIDER  6 BOTTLES--SEKENANI"
,,,1,"SNAPP CIDER 300ML",6,Bottle



,"BUFFET SODA-COKE--SEKENANI"
,,,1,"COKE SODA 300ML",1,Bottle



,"Zappa Green BT--SEPEKO"
,,,1,"ZAPPA SAMBUCA GREEN 30ML TOT",25,select



,"SMIRNOFF GUARANA  6 CANS--SEKENANI"
,,,1,"SMIRNOFF GUARANA 330ML CAN",6,Cans



,"MALIBU 750ML BT--SEKENANI"
,,,1,"MALIBU 750 ML BT",1,Bottle



,"SMIRNOFF ICE BLACK 6 CANS--SEKENANI"
,,,1,"SMIRNOFF ICE BLACK",6,Bottle



,"4TH STREET RED WINE BOTTLE--SEPEKO"
,,,1,"FOURTH STREET SWEET RED BOTTLE 750ML",1,Bottle



,"BREADED CHICKEN LOLLIPOPS--KITCHEN"
,,,1,EGGS,1,Pieces
,,,2,"BREADED CHICKEN LOLLIPOPS",1,PORTION
,,,3,POTATOES,0.25,Kilogram



,PEN--SEKENANI
,,,1,PEN,1,Piece



,"ROBERTSON RED WINE BOTTLE--SEPEKO"
,,,1,"ROBERTSON SWEET RED BOTTLE 750ML",1,Bottle



,"ROBERTSON ROSE--SEKENANI"
,,,1,"ROBERTSON ROSE WINE BOTTLE",1,Bottle



,"DROSTYHOFF CLARET WINE BOTTLE--SEPEKO"
,,,1,"DROSTDY HOF CLARET SELECT RED DRY BOTTLE 750ML",1,Bottle



,"DROSTYHOFF CLARET WINE BOTTLE--SEKENANI"
,,,1,"DROSTYHOFF CLARET WINE BOTTLE",1,Bottle



,"GUINNESS HOP--SEPEKO"
,,,1,"GUINNESS HOP HOUSE BEER 500ML",1,Bottle



,"FOUR COUSINS RED WINE  WINE BOTTLE--SEKENANI"
,,,1,"FOUR COUSINS SWEET RED BOTTLE 750ML",1,Bottle



,"CELLAR CASK WHITE WINE BOTTLE--SEPEKO"
,,,1,"CELLAR CASK SWEET WHITE 750ML",1,Bottle



,"FINGER KEBABS--KITCHEN"
,,,1,"FINGER KEBAB MINCED MEAT 125g",1,Kilogram
,,,2,POTATOES,0.125,Kilogram
,,,3,EGGS,2,select



,"Captain Morgan GOLD 750ml BT--SEPEKO"
,,,1,"CAPTAIN MORGAN GOLD BT 750 ML",1,Bottle



,"BUFFET SODA-SPRITE--SEPEKO"
,,,1,"SPRITE SODA 300ML",1,Bottle



,"Malbec  Red BT--SEKENANI"
,,,1,"MALBEC IMPERIAL VIN RED DRY WINE 750ML BOTTLE",1,Bottle



,"BUFFET SODA-FANTA ORANGE--SEPEKO"
,,,1,"FANTA ORANGE SODA 300ML",1,Bottle



,"CABERNET IMPERIAL VIN RED DRY WINE BOTTLE--SEKENANI"
,,,1,"CABERNET IMPERIAL VIN RED DRY WINE 750ML BOTTLE",1,Bottle



,"GUINESS H.HSE LAGER  6 BOTTLES--SEPEKO"
,,,1,"GUINESS HOP HOUSE SEPEKO",6,Bottle



,"Zappa Blue BT--SEPEKO"
,,,1,"ZAPPA BLUE BT 750 ML",1,Bottle



,"BILL PRINTER SEKENANI--SEKENANI"
,,,1,"BILL PRINTER",1,Unit



,"CHRISTMAS PORK SPARE RIBS PLATTER--BUTCHERY"
,,,1,POTATOES,1,Kilogram
,,,2,"PORK SPARE RIBS 250g",4,select



,"CAMINO TEQUILA--SEPEKO"
,,,1,"CAMINO TEQUILA GOLD 30ML TOT",25,select



,"MARTEL VS 750ML BT--SEKENANI"
,,,1,"MARTEL VS 30ML TOT",25,select



,"FAMOUSE GROUSE 750ML BOTTLE--SEKENANI"
,,,1,"FAMOUS GROUSE 30ML TOT",25,select



,"HENNESSY VS BT--SEKENANI"
,,,1,"HENNESSY VS 30ML TOT",25,select



,"MYERS RUM 1 LTR--SEPEKO"
,,,1,"MYERS RUM 30ML TOT",33,select



,"MYERS RUM 1 LTR BT--SEKENANI"
,,,1,"MYERS RUM 1 LTR BT",1,Bottle



,"MALIBU 750ML BT--SEPEKO"
,,,1,"MALIBU 30ML TOT",25,select



,"MERLOT SEMI SWEET RED  WINE BOTTLE--SEKENANI"
,,,1,"MERLOT RED WINE",1,Bottle



,"Bombay Sapphire BT--SEPEKO"
,,,1,"BOMBAY SAPHIRE 750 ML BT",1,Bottle



,"GLENFIDDICH 18YRS TOT--SEPEKO"
,,,1,"GLENFIDDICH WHISKEY 18 YEARS 30ML TOT",1,select



,"Barcadi BT--SEPEKO"
,,,1,"BARCADI SILVER BT 750 ML",1,Bottle



,"TANQUERAY NO. TEN BT--SEPEKO"
,,,1,"TANQUERAY NO 10 BT",1,Bottle



,"TANQUERAY 750ML BT--SEPEKO"
,,,1,"TANQUERAY 10 DRY GIN 30 ML",25,select



,"TANQUERAY 750ML BT--SEKENANI"
,,,1,"TANQUERAY 10 DRY GIN 30 ML",25,select



,"JAMESON 750ML BT--SEKENANI"
,,,1,"JAMESON ORIGINAL 750ML 30ML TOT",25,select



,"Captain Morgan GOLD 750ml BT--SEKENANI"
,,,1,"CAPTAIN MORGAN GOLD BT 750 ML",1,Bottle



,"SMIRNOFF RED VODKA 375ML BT--SEPEKO"
,,,1,"SMIRNOFF RED VODKA 375ML BOTTLE",1,Bottle



,"SMIRNOFF RED VODKA 750ML BT--SEKENANI"
,,,1,"SMIRNOFF RED VODKA 30ML TOT",25,select



,"SMIRNOFF RED VODKA 750ML BT--SEPEKO"
,,,1,"SMIRNOFF RED VODKA 30ML TOT",25,select



,"CAPTAIN MORGAN 750ML BT--SEPEKO"
,,,1,"CAPTAIN MORGAN GOLD 30ML",25,select



,"MARTEL VS 750ML BT--SEPEKO"
,,,1,"MARTEL VS 30ML TOT",25,select



,"TANQUERAY NO. TEN TOT--SEPEKO"
,,,1,"TANQUERAY 10 DRY GIN 30 ML",1,select



,"BALOZI LAGER  6 BOTTLES--SEPEKO"
,,,1,"BALOZI LAGER BEER 500ML",6,Bottle



,"HENDRICKS GIN--SEKENANI"
,,,1,"HENDRICKS GIN 750 ML BT",1,Bottle



,"GILBEYS GIN 350ML BT--SEPEKO"
,,,1,"GILBEYS GIN 375 ML BOTTLE",1,Bottle



,"GILBEYS GIN 350ML BT--SEKENANI"
,,,1,"GILBEYS GIN 375 ML BOTTLE",1,Bottle



,"CELLAR CASK RED WINE BOTTLE--SEPEKO"
,,,1,"CELLAR CASK SWEET RED 750ML",1,Bottle



,"GORDONS PINK GIN 750ML BT--SEKENANI"
,,,1,"GORDONS PINK GIN 30ML TOT",25,select



,"GORDONS DRY GIN 750ML BT--SEPEKO"
,,,1,"GORDON DRY GIN 750 ML BT",1,Bottle



,"REMY MARTIN VSOP TOT--SEKENANI"
,,,1,"REMY MARTIN VSOP TOT",1,select



,"Sweet & Sour Chicken Wings--KITCHEN"
,,,1,CHICKEN,1,select
,,,2,"HONEY JAR 40g",0.5,select
,,,3,POTATOES,0.25,Kilogram



,"BAILEYS 375ML  BT--SEKENANI"
,,,1,"BAILEYS 375ML BOTTLE",1,Bottle



,"WHITE CAP LITE  6 BOTTLES--SEKENANI"
,,,1,"WHITE CAP LITE BEER 330ML",6,Bottle



,"AMARULA 375ML  BT--SEPEKO"
,,,1,"AMARULA 375ML BOTTLE",1,Bottle



,"PILSNER LAGER  6 BOTTLES--SEPEKO"
,,,1,"PILSNER LAGER BEER 500ML",6,Bottle



,"FAMOUS PLATTER (MEDIUM)--KITCHEN"
,,,1,"HONEY JAR 40g",1,select
,,,2,FLAMBEE,1,PORTION
,,,3,POTATOES,1,Kilogram
,,,4,"BEEF SAUSAGES",2,select
,,,5,"PLATTER RIBS 0.5 KG PORTION",1,Kilogram
,,,6,"CHICKEN WINGS 250g",1,PORTION



,"Glenfiddich 15yrs 750ML BT--SEPEKO"
,,,1,"GLENFIDDICH 15 YRS BT 750 ML",1,Bottle



,"J.WALKER PLATINUM 750ML BOTTLE--SEPEKO"
,,,1,"JOHNNIE WALKER 18 PLATINUM 30 ML TOT",25,select



,"JOHNNIE WALKER  18 PLATINUM BT--SEKENANI"
,,,1,"J WALKER PLATINUM 750 ML BT",1,Bottle



,"JOHNY WALKER BLACK 750ML BT--SEPEKO"
,,,1,"JOHNNIE WALKER BLACK LABEL 30ML TOT",25,select



,"ROBERTSON RED WINE BOTTLE--SEKENANI"
,,,1,"ROBERTSON SWEET RED BOTTLE 750ML",1,Bottle



,"J.WALKER BLACK 375ML BOTTLE--SEPEKO"
,,,1,"JOHNNIE WALKER BLACK 375 ML",1,Bottle



,"JOHNNIE WALKER BLACK LABEL 375ML--SEKENANI"
,,,1,"JOHNNIE WALKER BLACK 375 ML",1,Bottle



,"CHRISTMAS DOUBLE NYAMAPLATTER--BUTCHERY"
,,,1,BROILER,1,select
,,,2,POTATOES,2,Kilogram
,,,3,"MBUZI 1KG",1,Kilogram



,"AMARULA 750ML  BT--SEKENANI"
,,,1,"AMARULA 30ML TOT",25,select



,"JAMESON 375ML--SEPEKO"
,,,1,"JAMESON 375 ML",1,Bottle



,"JAMESON 375ML BT--SEKENANI"
,,,1,"JAMESON 375 ML",1,Bottle



,"JAMESON 750ML BT--SEPEKO"
,,,1,"JAMESON ORIGINAL 750ML 30ML TOT",25,select



,NOTEBOOK--SEKENANI
,,,1,NOTEBOOK,1,Piece



,"JACK DANIELS 350ML BT--SEPEKO"
,,,1,"JACK DANIELS 375ML",1,Bottle



,"JACK DANIELS 700ML BT--SEPEKO"
,,,1,"JACK DANIELS OLD NO.7 30ML TOT",25,select



,"JACK DANIELS 1 LITRE BT--SEPEKO"
,,,1,"JACK DANIELS OLD NO.7 30ML TOT",33,select



,"JOHNNIE WALKER GREEN BT--SEPEKO"
,,,1,"JOHNNIE WALKER GREEN BT 750ML",1,Bottle



,"SINGLETON SUNRAY--SEKENANI"
,,,1,"SINGLETON SUNRAY 750ML BT",1,Bottle



,test34--BUTCHERY
,,,1,"MBUZI 1KG",1,Kilogram



,"MBUZI WET FRY 1KG--BUTCHERY"
,,,1,"MBUZI 1KG",1,Kilogram



,"Mbuzi Choma Half (1/2) KG--BUTCHERY"
,,,1,"MBUZI 1KG",0.5,Kilogram



,"J. WALKER  RED LABEL TOT--SEPEKO"
,,,1,"JOHNNIE WALKER RED LABEL 30ML TOT",1,TOT



,"J. WALKER  RED LABEL TOT--SEKENANI"
,,,1,"JOHNNIE WALKER RED LABEL 30ML TOT",1,TOT



,"J .WALKER BLACK LABEL TOT--SEPEKO"
,,,1,"JOHNNIE WALKER BLACK LABEL 30ML TOT",1,TOT



,"J. WALKER BLACK LABEL TOT--SEKENANI"
,,,1,"JOHNNIE WALKER BLACK LABEL 30ML TOT",1,TOT



,"Pick N Peel Apple 1ltr--SEKENANI"
,,,1,"PICK N PEEL JUICE APPLE 1 LTR",1,PACKET



,"Soda - Tonic  Water 300ml--SEKENANI"
,,,1,"TONIC WATER SODA 300ML",1,Bottle



,"Smirnoff Black Ice--SEPEKO"
,,,1,"SMIRNOFF ICE BLACK",1,Bottle



,"Smirnoff Black Ice--SEKENANI"
,,,1,"SMIRNOFF ICE BLACK",1,Bottle



,"Smirnoff Guarana--SEPEKO"
,,,1,"SMIRNOFF GUARANA 330ML CAN",1,Cans



,"Smirnoff Guarana--SEKENANI"
,,,1,"SMIRNOFF GUARANA 330ML CAN",1,Cans



,"My Fair Lady--SEPEKO"
,,,1,"GILBEYS GIN 30ML TOT",1,TOT
,,,2,"SMIRNOFF RED VODKA 30ML TOT",1,TOT
,,,3,"MALIBU 30ML TOT",1,TOT
,,,4,BAILEYS,1,TOT



,"My Fair Lady--SEKENANI"
,,,1,"GILBEYS GIN 30ML TOT",1,TOT
,,,2,"SMIRNOFF RED VODKA GOLD 30ML TOT",1,TOT
,,,3,"MALIBU 30ML TOT",1,TOT
,,,4,BAILEYS,1,TOT



,"Long Island--SEPEKO"
,,,1,"MALIBU 30ML TOT",1,TOT
,,,2,CAMINO,1,TOT
,,,3,GILBEYS,1,TOT
,,,4,SMIRNOFF,1,TOT



,"Long Island--SEKENANI"
,,,1,"MALIBU 30ML TOT",1,TOT
,,,2,CAMINO,1,TOT
,,,3,GILBEYS,1,TOT
,,,4,SMIRNOFF,1,TOT



,"Pick N Peel Passion 1ltr--SEPEKO"
,,,1,"PICK N PEEL PASSION",1,PACKET



,"Pick N Peel Passion 1ltr--SEKENANI"
,,,1,"PICK N PEEL PASSION",1,PACKET



,"JOHNNIE WALKER BLACK LABEL 375ML--SEPEKO"
,,,1,"JOHNNIE WALKER BLACK 375 ML",1,Bottle



,"JOHNNIE WALKER red label 375ML BT--SEPEKO"
,,,1,"JOHNNIE WALKER RED 375ML",1,Bottle



,"JOHNNIE WALKER red label 375ML BT--SEKENANI"
,,,1,"JOHNY WALKER RED LABEL 375ML",1,Bottle



,"Pick N Peel Red Grape 1ltr--SEPEKO"
,,,1,"PICK N PEEL JUICE RED GRAPE 1 LTR",1,PACKET



,"Pick N Peel Red Grape 1ltr--SEKENANI"
,,,1,"PICK N PEEL JUICE RED GRAPE 1 LTR",1,PACKET



,"SAVANNA CIDER--SEPEKO"
,,,1,"SAVANNAH CIDER",1,Bottle



,"SAVANNA CIDER--SEKENANI"
,,,1,"SAVANNAH CIDER",1,Bottle



,"DESPERADOS  300ML BOTTLE--SEPEKO"
,,,1,DESPERADOS,1,Bottle



,"DESPERADOS  300ML BOTTLE--SEKENANI"
,,,1,DESPERADOS,1,Bottle



,"Chamdor BT--SEPEKO"
,,,1,"CHAMDOR 750ML BOTTLE",1,Bottle



,"Chamdor BT--SEKENANI"
,,,1,"CHAMDOR 750ML BOTTLE",1,Bottle



,"Dry Martini--SEPEKO"
,,,1,"GILBEYS GIN 30ML TOT",2,TOT
,,,2,"LIME CORDIAL",1,TOT
,,,3,"MARTINI BIANCO 30ML TOT",1,TOT



,"Smith Collins--SEPEKO"
,,,1,"SPRITE SODA 300ML",1,Bottle
,,,2,"JAMESON ORIGINAL 750ML 30ML TOT",2,TOT
,,,3,LIME,1,TOT



,"Smith Collins--SEKENANI"
,,,1,"SPRITE SODA 300ML",1,Bottle
,,,2,"JAMESON ORIGINAL 750ML 30ML TOT",2,TOT
,,,3,LIME,1,TOT



,Mojito--SEPEKO
,,,1,"COKE SODA 300ML",1,Bottle
,,,2,"MYERS RUM 30ML TOT",2,TOT



,"Soda - Fanta Passion 300ml--SEPEKO"
,,,1,"FANTA PASSION SODA 300ML",1,Bottle



,"Soda - Fanta Passion 300ml--SEKENANI"
,,,1,"FANTA PASSION SODA 300ML",1,Bottle



,"BILL PRINTER SEPEKO--SEPEKO"
,,,1,"BILL PRINTER",1,Unit



,"2 CHOMA SAUSAGES--KITCHEN"
,,,1,"CHOMA SAUSAGE",2,select
,,,2,POTATOES,0.25,Kilogram



,"ROBERTSON ROSE WINE BOTTLE--SEKENANI"
,,,1,"ROBERTSON ROSE WINE BOTTLE",1,Bottle



,"LAWN MOWER--SEKENANI"
,,,1,"LAWN MOWER",1,Piece



,PROJECTOR--SEKENANI
,,,1,PROJECTOR,1,Piece



,"PUBLIC ADDRESS--SEPEKO"
,,,1,"PUBLIC ADRESS",1,Piece



,"PUBLIC ADDRESS--SEKENANI"
,,,1,"PUBLIC ADRESS",1,Piece



,FOIL--SEKENANI
,,,1,FOIL,1,ROLL



,"BURNER GEL CAN--SEKENANI"
,,,1,"BURNER GEL CAN",1,Cans



,"PRINTER ROLL--SEKENANI"
,,,1,"PRINTER ROLL",1,Piece



,"TABLE NUMBER--SEKENANI"
,,,1,"TABLE NUMBER",1,Piece



,"SHOWER CAP--SEKENANI"
,,,1,"SHOWER CAP",1,Piece



,EXTENSION--SEKENANI
,,,1,EXTENSION,1,Piece



,SERVIETTE(PKT)--SEKENANI
,,,1,SERVIETTE(PKT),1,Packet



,"TOILET PAPER--SEKENANI"
,,,1,"TOILET PAPER",1,Piece



,INTERLEAVES--SEKENANI
,,,1,INTERLEAVES,1,Packet



,"GUEST SOAP--SEKENANI"
,,,1,"GUEST SOAP",1,Piece



,"BARREL TISSUE--SEKENANI"
,,,1,"BARREL TISSUE (PC)",1,Piece



,AEROSOL--SEKENANI
,,,1,AEROSOL,1,Cans



,CERRAZO--SEKENANI
,,,1,CERRAZO,1,Litres



,"DEGREASER (1LTR)--SEKENANI"
,,,1,"DEGREASER (1LTR)",1,Litres



,"ROOM CARD--SEKENANI"
,,,1,"ROOM CARD",1,Piece



,INSECTICIDE--SEKENANI
,,,1,INSECTICIDE,1,Cans



,"BRIQUETTE (1 BAG)--SEKENANI"
,,,1,"BRIQUETTE (1 BAG)",1,BAG



,MINTS(PKT)--SEKENANI
,,,1,MINTS(PKT),1,Packet



,TOOTHPICK--SEKENANI
,,,1,TOOTHPICK,1,Packet



,CHARCOAL--SEKENANI
,,,1,CHARCOAL,1,BAG



,"SWIMMING TAGS--SEKENANI"
,,,1,"SWIMMING TAGS",1,Piece



,"TOILET CLEANER--SEKENANI"
,,,1,"TOILET CLEANER",1,Cans



,BLEACH--SEKENANI
,,,1,BLEACH,1,Unit



,"DRINKING CHOCOLATE POWDER--SEKENANI"
,,,1,"DRINKING CHOCOLATE POWDER",1,Cans



,STRAW--SEKENANI
,,,1,STRAW,1,Packet



,ENVELOPES--SEKENANI
,,,1,ENVELOPE,1,Piece



,SPONTEX--SEKENANI
,,,1,SPONTEX,1,Packet



,"FOAM SOAP--SEKENANI"
,,,1,"FOAM SOAP(1 LITRE)",1,Litres



,"CHEMICAL SOAP--SEKENANI"
,,,1,"CHEMICAL SOAP(1 LITRE)",1,Litres



,COASTERS--SEKENANI
,,,1,COASTERS,1,Piece



,"KITCHEN TOWEL--SEKENANI"
,,,1,"KITCHEN TOWEL",1,Piece



,"PRINTING PAPER--SEKENANI"
,,,1,"PRINTING PAPAER",1,Packet



,"CLING FILM--SEKENANI"
,,,1,"CLING FILM",1,ROLL



,"CHLORINE 90--SEKENANI"
,,,1,"CHLORINE 90",1,Kilogram



,"CHLORINE 65--SEKENANI"
,,,1,"CHLORINE 65",1,Kilogram



,ALGECURE--SEKENANI
,,,1,ALGECURE,1,Kilogram



,MINTS(PKT)--SEKENANI
,,,1,MINTS(PKT),1,Packet



,Redbull--SEPEKO
,,,1,REDBULL,1,Cans



,Redbull--SEKENANI
,,,1,REDBULL,1,Cans



,"JAMESON ORIGINAL TOT--SEKENANI"
,,,1,"JAMESON ORIGINAL 750ML 30ML TOT",1,select



,"Alvaro Pineapple--SEPEKO"
,,,1,ALVARO,1,Bottle



,"Alvaro Pineapple--SEKENANI"
,,,1,ALVARO,1,Bottle



,"Courvoisier VS TOT--SEKENANI"
,,,1,"COURVOISIER VS 30 ML TOT",1,TOT



,"POOL MAGIC--SEKENANI"
,,,1,"POOL MAGIC",1,Kilogram



,SPARKLE--SEKENANI
,,,1,SPARKLE,1,Litres



,PH+--SEKENANI
,,,1,PH+,1,Kilogram



,"CHLORINE TEST SOLUTION 1--SEKENANI"
,,,1,"CHLORINE TEST SOLUTION 1",1,Litres



,"CHLORINE TEST SOLUTION 2--SEKENANI"
,,,1,"CHLORINE TEST SOLUTION 2",1,Litres



,"TAKEAWAY BAGS LARGE (LONG)--SEKENANI"
,,,1,"TAKEAWAY BAGS LARGE (LONG)",1,Piece



,"TAKEAWAY BAGS LARGE MEDIUM--SEKENANI"
,,,1,"TAKEAWAY BAGS LARGE MEDIUM",1,Piece



,"20 LITRES WATER--SEKENANI"
,,,1,"20 LITRES WATER",1,Litres



,MOP--SEKENANI
,,,1,MOP,1,Piece



,"MOP BUCKET--SEKENANI"
,,,1,"MOP BUCKET",1,Piece



,"HDMI CABLE--SEKENANI"
,,,1,"HDMI CABLE",1,Piece



,"MASTER ROOM  CARD--SEKENANI"
,,,1,"MASTER ROOM  CARD",1,Piece



,SANITIZER--SEKENANI
,,,1,SANITIZER,1,Cans



,"SERVICE CLOTH--SEKENANI"
,,,1,"SERVICE CLOTH",1,Piece



,BULB--SEKENANI
,,,1,BULB,1,Piece



,"ROOM ELEMENT--SEKENANI"
,,,1,"ROOM ELEMENT",1,Piece



,"DOUBLE A BATTERIES--SEKENANI"
,,,1,"DOUBLE A BATTERIES",1,PAIR



,"TRIPLE A BATTERIES--SEKENANI"
,,,1,"TRIPLE A BATTERIES",1,PAIR



,"INSULATION TAPE--SEKENANI"
,,,1,"INSULATION TAPE",1,ROLL



,"SCREW DRIVER SET--SEKENANI"
,,,1,"SCREW DRIVER SET",1,SET



,"RING SPANNER 12/13--SEKENANI"
,,,1,"RING SPANNER 12/13",1,Piece



,TANGIT--SEKENANI
,,,1,TANGIT,1,Piece



,"HARD BROOM--SEKENANI"
,,,1,"HARD BROOM",1,Bunch



,"SOFT BROOM--SEKENANI"
,,,1,"SOFT BROOM",1,Bunch



,DOOM--SEKENANI
,,,1,DOOM,1,Cans



,"AIR WICK SPRAY--SEKENANI"
,,,1,"AIR WICK SPRAY",1,Cans



,"FLOOR POLISH--SEKENANI"
,,,1,"FLOOR POLISH",1,Litres



,SCRUBBER--SEKENANI
,,,1,SCRUBBER,1,Piece



,"SUPER BRIGHT--SEKENANI"
,,,1,"SUPER BRIGHT",1,Piece



,"MATCH BOXES--SEKENANI"
,,,1,"MATCH BOXES",1,Packet



,"HAND WASH LIQUID SOAP--SEKENANI"
,,,1,"HAND WASH LIQUID SOAP",1,Bottle



,"SALT SACHET(S)--SEKENANI"
,,,1,"SALT SACHET(S)",1,Piece



,"FLIP CHART--SEKENANI"
,,,1,"FLIP CHART",1,Unit



,"Flip Chart Screen--KITCHEN"
,,,1,"FLIP CHART",1,Unit



,"URINAL MAT--SEKENANI"
,,,1,"URINAL MAT",1,Piece



,"EXTRA HONEY 40g--KITCHEN"
,,,1,"HONEY JAR 40g",1,PORTION



,"Meat Deluxe Pizza-Chicken--KITCHEN"
,,,1,"MEAT DELUXE PIZZA-CHICKEN BONELESS 125 GMS",1,Kilogram



,"PAN FRIED SAUSAGES--KITCHEN"
,,,1,"CHOMA SAUSAGE",2,select
,,,2,POTATOES,0.125,Kilogram



,Eno--SEKENANI
,,,1,ENO,1,Packet



,Margarita--SEPEKO
,,,1,"CAMINO TEQUILA REAL 30ML TOT",1,TOT
,,,2,GILBEYS,1,TOT
,,,3,BARCADI,1,TOT
,,,4,LIME,1,TOT



,"Summit Lager--SEPEKO"
,,,1,"SUMMIT LAGER BEER 500ML",1,Bottle



,"Summit Lager--SEKENANI"
,,,1,"SUMMIT LAGER BEER 500ML",1,Bottle



,"Sepeko Dawa--SEPEKO"
,,,1,"SMIRNOFF RED VODKA 30ML TOT",2,TOT
,,,2,LIME,1,TOT
,,,3,KREST,1,Bottle



,"Sepeko Dawa--SEKENANI"
,,,1,"SMIRNOFF RED VODKA 30ML TOT",2,TOT
,,,2,LIME,1,TOT
,,,3,KREST,1,Bottle



,"Between The Sheets--SEPEKO"
,,,1,"SMIRNOFF RED VODKA 30ML TOT",2,TOT
,,,2,CELLAR,1,select



,Manhattan--SEPEKO
,,,1,"JACK DANIELS OLD NO.7 30ML TOT",1,TOT
,,,2,MARTINI,1,TOT
,,,3,PIMMS,1,TOT
,,,4,COKE,1,Bottle



,Manhattan--SEKENANI
,,,1,"JACK DANIELS OLD NO.7 30ML TOT",1,TOT
,,,2,MARTINI,1,TOT
,,,3,PIMMS,1,TOT
,,,4,COKE,1,Bottle



,"Rusty Nail--SEPEKO"
,,,1,"SOUTHERN COMFORT LIQUEUR 30ML TOT",2,TOT
,,,2,JOHNNIE,1,TOT
,,,3,SPRITE,1,Bottle



,"Rusty Nail--SEKENANI"
,,,1,"SOUTHERN COMFORT LIQUEUR 30ML TOT",2,TOT
,,,2,JOHNNIE,1,TOT
,,,3,SPRITE,1,Bottle



,"Jager Bomb--SEPEKO"
,,,1,REDBULL,1,Cans
,,,2,JAGERMEISTER,2,TOT



,"Jager Bomb--SEKENANI"
,,,1,REDBULL,1,Cans
,,,2,JAGERMEISTER,2,TOT



,test--BUTCHERY
,,,1,"LEMI TESTING",1,Kilogram



,"TEST LEMI--BUTCHERY"
,,,1,"LEMI TESTING",1,Kilogram



,"BUFFET SODA-BITTER LEMON--SEKENANI"
,,,1,"KREST BITTER LEMON SODA 300ML",1,Bottle



,"BUFFET SODA-BITTER LEMON--SEPEKO"
,,,1,"KREST BITTER LEMON SODA 300ML",1,Bottle



,"BUFFET WATER--SEPEKO"
,,,1,"SMITH MINERAL WATER 500ML",1,Bottle



,"BUFFET WATER--SEKENANI"
,,,1,"SMITH MINERAL WATER 500ML",1,Bottle



,"Captain Morgan  SPICE GOLD TOT--SEPEKO"
,,,1,"CAPTAIN MORGAN SPICED GOLD 30ML",1,TOT



,"Captain Morgan  SPICE GOLD TOT--SEKENANI"
,,,1,"CAPTAIN MORGAN SPICED GOLD 30ML",1,TOT



,"ravail testing--SEPEKO"
,,,1,ravailTesting,1,Cans



,"ravail testing--BUTCHERY"
,,,1,ravailTesting,1,Cans



,"Chicken Burger--KITCHEN"
,,,1,"CHICKEN BURGER BONELESS CHICKEN 125g",1,PORTION
,,,2,POTATOES,0.25,Kilogram



,"Martini Rosso TOT--SEPEKO"
,,,1,"MARTINI ROSSO 30ML TOT",1,TOT



,"Martini Rosso TOT--SEKENANI"
,,,1,"MARTINI ROSSO 30ML TOT",1,TOT



,"FAY MULTIFOLD HAND TOWEL--SEKENANI"
,,,1,"FAY MULTIFOLD HAND TOWEL",1,Piece



,"GEL SANITIZER POUCH--SEKENANI"
,,,1,"GEL SANITIZER POUCH",1,Piece



,"Vegetable Ratatoule--KITCHEN"
,,,1,"RICE 0.125 GMS PORTION",1,PORTION



,"Yellow Dhaal--KITCHEN"
,,,1,"RICE 0.125 GMS PORTION",1,PORTION



,"Plain Rice--KITCHEN"
,,,1,"RICE 0.125 GMS PORTION",1,PORTION



,"Vegetable Rice--KITCHEN"
,,,1,"RICE 0.125 GMS PORTION",1,PORTION



,"Famous Ugali--KITCHEN"
,,,1,"UGALI 200GMS PORTION",1,PORTION



,"Famous Ugali--BUTCHERY"
,,,1,"UGALI 200GMS PORTION",1,PORTION



,"AMERICAN PANCAKES--KITCHEN"
,,,1,MILK,1,PORTION
,,,2,EGGS,1,Pieces



,"SILVER BUFFET PACKAGE--KITCHEN"
,,,1,POTATOES,0.33,Kilogram



,"GOLD BUFFET PACKAGE--KITCHEN"
,,,1,POTATOES,0.33,Kilogram



,"PLATINUM BUFFET PACKAGE--KITCHEN"
,,,1,POTATOES,0.33,Kilogram



,"VALENTINE'S DINNER WITHOUT WINE--SEKENANI"
,,,1,"PEPPER STEAK BEEF FILLET 250g",1,PORTION
,,,2,CAESER'S,1,PORTION
,,,3,FISH,1,PORTION
,,,4,POTATOES,0.66,Kilogram
,,,5,RICE,1,PORTION



,"VALENTINE'S DINNER SINGLE WITHOUT WINE--KITCHEN"
,,,1,"PEPPER STEAK BEEF FILLET 250g",0.5,PORTION
,,,2,CAESER'S,0.5,PORTION
,,,3,FISH,0.5,PORTION
,,,4,POTATOES,0.33,Kilogram
,,,5,RICE,0.5,PORTION



,"FULL DAY CONFERENCE--SEKENANI"
,,,1,PEN,1,Piece
,,,2,NOTEBOOK,1,Piece
,,,3,CLEAR,1,Bottle



,"FULL DAY CONFERENCE--SEPEKO"
,,,1,PEN,1,Piece
,,,2,NOTEBOOK,1,Piece
,,,3,CLEAR,1,Bottle



,"HALF DAY CONFERENCE--SEPEKO"
,,,1,PEN,1,Piece
,,,2,NOTEBOOK,1,Piece
,,,3,CLEAR,1,Bottle



,"HALF DAY CONFERENCE--SEKENANI"
,,,1,PEN,1,Piece
,,,2,NOTEBOOK,1,Piece
,,,3,CLEAR,1,Bottle



,"FULL BOARD CONFERENCE--SEKENANI"
,,,1,PEN,1,Piece
,,,2,NOTEBOOK,1,Piece
,,,3,CLEAR,1,Bottle



,"FULL BOARD CONFERENCE--SEPEKO"
,,,1,PEN,1,Piece
,,,2,NOTEBOOK,1,Piece
,,,3,CLEAR,1,Bottle



,"HALF BOARD CONFERENCE--SEPEKO"
,,,1,PEN,1,Piece
,,,2,NOTEBOOK,1,Piece
,,,3,CLEAR,1,Bottle



,"BLUE T-SHIRT LARGE--SEKENANI"
,,,1,"BRANDED T-SHIRT LARGE",1,Piece



,"BLUE T-SHIRT MEDIUM--SEKENANI"
,,,1,"BRANDED T-SHIRT MEDIUM",1,Piece



,"GREEN T-SHIRT LARGE--SEKENANI"
,,,1,"BRANDED T-SHIRT LARGE",1,Piece



,"GREEN T-SHIRT MEDIUM--SEKENANI"
,,,1,"BRANDED T-SHIRT MEDIUM",1,Piece



,"STAFF SWEATER(S)--SEPEKO"
,,,1,"STAFF SWEATER(S)",1,Piece



,"STAFF SWEATER(S)--SEKENANI"
,,,1,"STAFF SWEATER(S)",1,Piece



,"SMITH COLLINS  BOGOF--SEPEKO"
,,,1,"WILLIAM LAWSON 30ML TOT",2,TOT
,,,2,LIME,2,TOT
,,,3,KREST,1,Bottle



,"SMITH COLLINS  BOGOF--SEKENANI"
,,,1,"WILLIAM LAWSON 30ML TOT",2,TOT
,,,2,LIME,2,TOT
,,,3,KREST,1,Bottle



,"MY FAIR LADY BOGOF--SEPEKO"
,,,1,"KENYA CAN RUM 30ML TOT",1,TOT
,,,2,MOLLY'S,1,TOT
,,,3,KIBAO,1,TOT



,"MY FAIR LADY BOGOF--SEKENANI"
,,,1,"KENYA CAN RUM 30ML TOT",1,TOT
,,,2,MOLLY'S,1,TOT
,,,3,KIBAO,1,TOT



,"MARGARITA BOGOF--SEPEKO"
,,,1,"GORDONS LONDON DRY GIN 30ML TOT",1,TOT
,,,2,"KENYA CAN RUM 30ML TOT",1,TOT
,,,3,"LIME CORDIAL",2,TOT
,,,4,ZAPPA,0.5,TOT



,"MARGARITA BOGOF--SEKENANI"
,,,1,"GORDONS LONDON DRY GIN 30ML TOT",1,TOT
,,,2,"KENYA CAN RUM 30ML TOT",1,TOT
,,,3,"LIME CORDIAL",2,TOT
,,,4,ZAPPA,0.5,TOT



,"BETWEEN THE SHEETS BOGOF--SEPEKO"
,,,1,"KIBAO VODKA 30ML TOT",2,TOT
,,,2,KENYA,1,TOT
,,,3,LIME,1,TOT



,"BETWEEN THE SHEETS BOGOF--SEKENANI"
,,,1,"KIBAO VODKA 30ML TOT",2,TOT
,,,2,KENYA,1,TOT
,,,3,LIME,1,TOT



,"MOJITO  BOGOF--SEPEKO"
,,,1,"GORDONS LONDON DRY GIN 30ML TOT",2,TOT
,,,2,KIBAO,1,TOT
,,,3,LIME,2,TOT



,"MOJITO  BOGOF--SEKENANI"
,,,1,"GORDONS LONDON DRY GIN 30ML TOT",2,TOT
,,,2,KIBAO,1,TOT
,,,3,LIME,2,TOT



,"RUSTY NAIL BOGOF--SEPEKO"
,,,1,"KIBAO VODKA 30ML TOT",2,TOT
,,,2,WILLIAM,1,TOT
,,,3,LIME,2,TOT
,,,4,KREST,1,Bottle



,"RUSTY NAIL BOGOF--SEKENANI"
,,,1,"KIBAO VODKA 30ML TOT",2,TOT
,,,2,WILLIAM,1,TOT
,,,3,LIME,2,TOT
,,,4,KREST,1,Bottle



,"MANHATTAN BOGOF--SEPEKO"
,,,1,"WILLIAM LAWSON 30ML TOT",2,TOT
,,,2,KIBAO,1,TOT
,,,3,LIME,2,TOT
,,,4,COKE,1,Bottle



,"MANHATTAN BOGOF--SEKENANI"
,,,1,"WILLIAM LAWSON 30ML TOT",2,TOT
,,,2,KIBAO,1,TOT
,,,3,LIME,2,TOT
,,,4,COKE,1,Bottle



,"SEPEKO DAWA BOGOF--SEPEKO"
,,,1,"KIBAO VODKA 30ML TOT",2,TOT
,,,2,KENYA,1,TOT
,,,3,LIME,2,TOT



,"SEPEKO DAWA BOGOF--SEKENANI"
,,,1,"KIBAO VODKA 30ML TOT",2,TOT
,,,2,KENYA,1,TOT
,,,3,LIME,2,TOT



,"DRY MARTINI BOGOF--SEPEKO"
,,,1,"KIBAO VODKA 30ML TOT",2,TOT
,,,2,KENYA,1,TOT
,,,3,LIME,2,TOT
,,,4,MARTINI,1,TOT



,"DRY MARTINI BOGOF--SEKENANI"
,,,1,"KIBAO VODKA 30ML TOT",2,TOT
,,,2,KENYA,1,TOT
,,,3,LIME,2,TOT
,,,4,MARTINI,1,TOT



,"BLOODY MARY BOGOF--SEPEKO"
,,,1,"KIBAO VODKA 30ML TOT",2,TOT
,,,2,KENYA,1,TOT



,"BLOODY MARY BOGOF--SEKENANI"
,,,1,"KIBAO VODKA 30ML TOT",2,TOT
,,,2,KENYA,1,TOT



,FAXE--SEPEKO
,,,1,FAXE,1,Cans



,FAXE--SEKENANI
,,,1,FAXE,1,Cans



,"SPARKLING LIME BOGOF--SEPEKO"
,,,1,"LIME CORDIAL",3,TOT
,,,2,SODA,1,Bottle



,"SPARKLING LIME BOGOF--SEKENANI"
,,,1,"LIME CORDIAL",3,TOT
,,,2,SODA,1,Bottle



,"NON ALCOHOLIC SANGRIA TROPICAL BOGOF--SEPEKO"
,,,1,"COCKTAIL JUICE FRESH GLASS 300ML",0.5,select
,,,2,PICK,0.16,select



,"NON ALCOHOLIC SANGRIA TROPICAL BOGOF--SEKENANI"
,,,1,"COCKTAIL JUICE FRESH GLASS 300ML",0.5,select
,,,2,PICK,0.16,select



,"NON ALCOHOLIC SANGRIA RED GRAPE BOGOF--SEPEKO"
,,,1,"COCKTAIL JUICE FRESH GLASS 300ML",0.5,select
,,,2,PICK,0.16,select



,"NON ALCOHOLIC SANGRIA RED GRAPE BOGOF--SEKENANI"
,,,1,"COCKTAIL JUICE FRESH GLASS 300ML",0.5,select
,,,2,PICK,0.16,select



,"Soda - Coke Zero 300ml--SEPEKO"
,,,1,"COKE ZERO 300ML BOTTLE",1,Bottle



,"Soda - Coke Zero 300ml--SEKENANI"
,,,1,"COKE ZERO 300ML BOTTLE",1,Bottle



,"Soda - Stoney Tangawizi without sugar 300ml--SEKENANI"
,,,1,"STONEY TANGAWIZI SODA 300ml",1,Bottle



,"Soda - Stoney Tangawizi 300ml--SEKENANI"
,,,1,"STONEY TANGAWIZI SODA 300ml",1,Bottle



,Sportsman--SEPEKO
,,,1,"SPORTSMAN CIGARETTES (20's)",1,select



,"BUFFET SODA-STONEY--SEPEKO"
,,,1,"STONEY TANGAWIZI SODA 300ml",1,Bottle



,"Lemon Water--KITCHEN"
,,,1,"HONEY JAR 40g",1,PORTION



,"LEMON TEA--KITCHEN"
,,,1,"HONEY JAR 40g",1,PORTION



,"BUFFET SODA-BLACK CURRENT--SEKENANI"
,,,1,"FANTA BLACK CURRANT SODA 300ML",1,Bottle
