,,,,,,,"The Smith Hotels",,
,,,,,,,0705625356
,,,,,,,"Product Wise Sales Report"
,,,,
,,Item,"Sales QTY","Gross Sales"
"FOOD & BEVERAGE"
RESERVATIONS/EVENTS
"TAKE AWAY ORDER"
"BEER DELIVERY/RENT A KEG"
TOBACCO
"OFFERS/THEME NIGHTS"
,,,"Gross Sales",0
